# This file uses centimeters as units for non-parametric coordinates.

mtllib pollo.mtl
g default
v 17.175232 9.689735 2.959194
v -12.483231 -3.414917 -1.171467
v -8.207123 -1.826782 -0.039611
v 9.880341 3.395357 7.232300
v -12.459183 -3.747208 -0.068867
v -8.221573 -1.789864 -0.951160
v 2.806862 4.469126 -7.042618
v -12.523956 -2.851700 -2.214642
v -8.296967 -1.488678 -1.644939
v -13.169128 3.264734 -2.638683
v -12.539658 -2.975876 2.193802
v -8.426239 -0.923080 -2.208912
v -8.446533 -0.655113 2.972691
v -12.784912 -0.874878 -3.709511
v -8.555771 -0.264030 -2.772530
v -15.391113 -3.146484 -2.246624
v -12.745926 -0.878395 3.689034
v -8.783310 0.664268 -3.098618
v -16.983643 -1.946770 3.099422
v -12.835876 0.458504 4.271461
v -9.059692 1.780651 -2.959461
v -15.612488 -2.300087 2.962532
v -13.123230 2.761189 -3.034260
v -9.173676 2.384689 -2.795078
v -8.351639 -1.198288 2.144302
v -13.179596 2.944365 3.121017
v -9.273773 2.989817 -2.425217
v -17.418732 1.871017 -0.420564
v -13.288177 3.898491 -1.111734
v -9.398193 3.278368 -1.602211
v -17.439056 0.402885 0.094545
v -13.266281 3.788514 2.251495
v -9.422440 3.148647 -0.325951
v -17.145630 0.258026 2.528042
v -13.267532 4.483747 0.060023
v -9.427368 3.167242 0.897610
v -8.360077 -1.219398 -1.931705
v -13.279327 4.413684 1.143503
v -9.348465 2.874950 2.084637
v -18.321075 -3.283096 0.027004
v -12.956955 1.447365 3.971375
v -9.226822 2.472485 2.962402
v -9.232010 2.736788 -2.662872
v -13.211685 3.633429 -2.237228
v -8.965576 1.330441 3.215523
v -9.448837 3.253401 -1.045439
v -13.024963 2.074520 -3.542191
v -8.734818 0.513290 3.318592
v -16.924561 -0.691269 -2.921215
v -12.708481 -1.987167 2.990997
v -8.503983 -0.304359 3.246025
v -13.286774 4.571949 0.631170
v -12.900558 0.314438 -4.173698
v -8.395767 -0.951591 2.585026
v 18.441406 9.627129 0.303498
v -12.330673 -3.874832 1.271776
v -8.302322 -1.427429 1.732368
v -15.230164 -4.193481 0.519868
v -12.615845 -2.121422 -2.994160
v -8.225677 -1.763367 0.887533
v 14.185760 5.595924 -5.206207
v -17.294464 0.037857 0.112439
v 10.530975 1.022652 6.332855
v -15.890076 0.113991 -3.397587
v 2.733364 4.989733 6.645203
v -12.390778 -3.542526 1.748672
v 18.349854 9.759300 -0.079790
v 18.371796 9.624405 -0.133163
v 18.424744 9.472008 0.219505
v 8.611481 7.799026 -6.714203
v -3.839027 -1.242081 -3.075916
v 18.433228 9.165718 0.107563
v 2.404182 6.155016 -6.427650
v 18.369476 9.786606 0.070883
v 18.418732 9.436745 0.146649
v 12.367477 12.712738 2.721226
v -4.748375 6.130405 -0.702562
v 17.035522 7.813019 -2.527298
v -15.236053 -4.163269 -0.500795
v 17.865265 4.888731 -0.436945
v -12.471771 -3.673935 -0.675508
v 18.381653 9.767014 0.118476
v 17.660095 7.938972 3.011814
v -4.710228 6.089474 -0.098797
v -16.054382 -4.446915 -0.417187
v -15.551392 -2.226433 -2.931831
v 2.191776 6.718910 6.352013
v -13.271286 3.794954 -1.695786
v -15.845734 -1.158539 -3.574417
v -3.680855 -2.447784 0.020939
v 1.359707 10.015305 -3.049057
v -13.092468 2.344097 3.440811
v -16.107544 2.091988 -2.338142
v -15.781433 -1.143555 3.405277
v 4.743172 -2.372566 4.830460
v -4.009888 0.679619 3.945457
v 15.352142 0.917542 2.290386
v 4.783730 -2.413147 -4.866196
v 15.878448 0.041710 0.653917
v -4.628685 5.926361 0.558116
v 5.382935 -4.499756 -1.121651
v 4.092415 -0.596207 -6.605972
v 1.457298 9.063858 -5.520966
v 5.152328 -3.777405 -3.169060
v 4.245865 -0.306511 5.999557
v 1.086496 10.918098 -1.189999
v -16.265656 2.457684 2.592854
v 7.402527 12.319260 3.500885
v -3.655624 -2.094307 -1.238512
v 16.801849 9.117699 -2.665134
v 16.179230 11.952896 -1.263885
v -12.782410 -0.235291 4.093918
v 18.428284 9.700256 0.222207
v 10.562515 0.924438 -6.440338
v 12.258438 12.495331 -2.464058
v 7.820923 10.615028 -5.249924
v 11.560669 -2.621887 3.290730
v -17.885712 -3.960770 0.041335
v 18.445313 9.313095 0.412382
v 18.442627 9.357620 0.416091
v 1.657152 8.708878 4.873154
v -8.663818 0.184944 -2.980648
v -17.028656 -0.501785 2.823093
v -4.680771 3.229029 3.986526
v 7.190567 12.846542 -1.310860
v 18.465088 9.203217 0.352115
v 14.520416 5.662781 5.548668
v 12.524734 10.994720 3.567368
v -3.753487 -1.048363 2.815678
v 18.455078 9.150642 0.198977
v -3.814232 -0.541664 3.244690
v -12.971649 1.021580 -3.857979
v 16.059998 11.691376 1.095047
v -17.286316 -0.425217 0.126466
v -4.648399 3.715693 -4.213211
v -17.616089 -4.252304 0.042906
v -4.451073 2.617329 -4.501213
v -17.740906 -4.142609 0.050634
v -9.283203 2.676081 2.554535
v -3.669678 -2.323654 -0.607109
v -17.473083 1.909611 0.507728
v -8.591736 0.082336 3.380688
v -18.404907 -2.136787 1.755333
v 15.323395 1.871098 -3.798813
v -16.051514 1.373062 3.010723
v -12.500748 -3.113129 -1.689049
v -18.347778 -2.032135 -0.964746
v 7.214981 12.718613 1.123928
v 18.361053 9.788162 -0.011325
v -18.231415 -2.009315 -1.518389
v -15.424927 -3.292877 2.414673
v -16.158813 -4.120743 -1.226919
v -4.252617 1.893795 4.431816
v 18.468079 9.175323 0.321107
v 15.971710 12.135635 0.316316
v 1.292810 10.124168 3.122292
v -4.404472 2.883791 4.282547
v -3.672188 -2.384506 0.637206
v 18.368347 9.462242 -0.132487
v 18.405121 9.221069 0.025478
v 11.649612 -3.055023 2.229271
v 11.800888 -3.456894 -0.002646
v 11.718719 -3.045700 -2.240059
v 11.366959 -1.948540 -4.321701
v 10.926239 -0.389015 -6.020073
v 10.364380 2.102402 -7.167892
v 9.567245 4.672852 -7.666885
v 18.433044 9.669106 0.264835
v 8.145508 9.560898 -6.023865
v 7.546951 11.687958 -4.537422
v 7.229782 12.872421 -2.642193
v 7.198715 12.764450 -0.015703
v 7.276794 12.668808 2.366283
v 7.626495 11.354752 4.355522
v 8.151199 9.374245 5.708885
v 8.958374 6.651558 7.480942
v 9.632233 4.691780 7.860703
v 10.189743 2.199482 6.680840
v 10.846786 -0.205589 5.925972
v 11.412018 -1.966881 4.274696
v 15.584351 0.434029 1.535666
v 16.140228 -0.152130 -0.250683
v 15.585754 0.437370 -1.588320
v 15.459869 1.233074 -3.212967
v 15.056915 2.721312 -4.248138
v 14.530121 4.580351 -5.074661
v 13.932648 6.643356 -5.267052
v 13.339310 9.354843 -5.209862
v 12.907990 10.644432 -4.560539
v 12.467987 12.218109 -3.348297
v 12.115646 12.810501 -1.643763
v 12.012909 13.011765 -0.011457
v 12.126572 12.725708 1.662724
v 12.478851 11.967545 3.276360
v 12.685257 10.173103 3.938766
v 13.766479 8.237694 5.480453
v 14.312286 6.717628 5.737091
v 14.729797 4.559991 5.265335
v 15.172577 2.800484 4.503792
v 15.158691 1.480526 2.926338
v 17.877686 4.875236 0.385969
v 13.603607 7.663334 -5.156754
v 15.866180 0.063759 -0.894638
v 17.779297 6.687645 2.433609
v -17.349426 1.162464 2.044426
v 18.462402 9.148422 0.242463
v -8.210846 -1.819817 0.430409
v -15.953979 0.948753 -3.076656
v -15.312500 -4.037247 1.576195
v 8.453125 8.399834 6.439178
v 18.431732 9.424141 0.235896
v -13.251480 3.366432 2.773792
v 17.433044 6.734753 -2.309101
v 11.189316 -1.233925 5.239655
v -16.558594 -2.700211 -2.501846
v -17.296570 1.559982 -1.268915
v 16.384888 11.081329 1.968483
v -4.806465 5.574656 -2.699810
v -3.679024 -1.824501 1.821728
v -16.735840 -1.724113 -2.958679
v -15.258698 -4.027496 -0.977205
v -15.227600 -4.210739 0.000138
v -15.339203 -3.507507 -1.858902
v -15.257416 -4.134949 1.052124
v -15.457153 -2.717758 -2.595379
v -15.373871 -3.746277 2.032257
v -15.705475 -1.720917 -3.335461
v -15.489655 -2.792419 2.704067
v -15.876892 -0.527634 -3.563072
v -15.703094 -1.757942 3.181190
v 9.162308 5.974903 -7.639709
v -15.885254 -0.507309 3.576233
v -16.037292 1.660225 -2.682312
v -15.931671 0.396896 3.340225
v -16.145386 2.459023 -1.927742
v -16.190002 2.023365 2.866688
v -16.161499 2.907818 -0.994402
v -16.286285 2.747503 2.164978
v -16.231506 3.430111 0.145249
v -16.256195 3.434000 1.239513
v -16.095001 -4.320374 -0.829481
v -16.040131 -4.494156 0.008129
v -16.246521 -3.848907 -1.598097
v -16.089264 -4.390701 0.914810
v -16.465851 -3.119064 -2.229866
v -16.238159 -4.083817 1.776413
v -16.644623 -2.234657 -2.750534
v -16.572876 -3.190216 2.390274
v -16.829773 -1.202301 -3.023552
v -16.941864 -2.429047 3.018818
v -16.985748 0.017433 -2.609074
v -16.954590 -1.345161 3.039551
v -16.937836 0.622177 -2.185120
v 7.888062 10.338570 5.024010
v -17.165253 1.286888 -1.622547
v -17.227264 0.731773 2.294247
v -17.374512 1.754280 -0.860677
v -17.492340 1.516304 1.781071
v -17.447021 1.920403 0.038868
v -17.509979 1.845459 0.977432
v 18.377930 9.553131 -0.134012
v -8.257080 -1.626282 1.321522
v -4.842697 3.878906 3.776657
v 18.395844 9.249695 -0.012672
v -17.865570 -2.922592 -1.416508
v -9.166321 2.180111 3.217945
v 18.450439 9.269577 0.400508
v -18.002625 -2.958023 1.574110
v -12.390060 -3.853363 0.654334
v 15.195190 2.044922 3.716942
v -17.741547 -0.976082 -1.660427
v 18.455475 9.234261 0.379234
v 18.443573 9.400314 0.416803
v -17.891907 -1.026436 1.831005
v -9.428375 3.183823 0.332923
v -3.984528 -0.800049 -3.684242
v 17.925201 5.778261 -1.789745
v 18.387085 9.284058 -0.047734
v 13.034485 9.468651 4.505600
v -16.242798 3.568583 0.718587
v 14.768951 3.648580 -4.711868
v 18.373688 9.372147 -0.096169
v -4.779709 5.203781 -3.152222
v 18.368195 9.417145 -0.117852
v -16.975983 0.950920 -1.898335
v -18.428162 -2.064217 0.074533
v -18.116058 -1.355965 0.079595
v -8.211182 -1.815910 -0.508775
v 18.351868 9.727997 -0.101321
v -4.107857 1.290344 4.231346
v 3.484619 1.911793 -7.135895
v -4.834030 5.302372 1.957382
v -17.652527 -0.798203 0.101885
v -18.488953 -2.743332 0.046574
v -8.488937 -0.612450 -2.490299
v -4.205811 -0.402397 -4.268692
v -16.145599 -4.285538 1.373274
v 15.459351 0.836029 -2.369850
v -18.468750 -2.111343 1.158575
v 11.493301 -2.465668 -3.175846
v 5.272346 -4.611755 2.244873
v 5.405380 -4.511963 0.055340
v 5.313560 -4.314377 -2.173023
v 4.936295 -3.284561 -4.245422
v 4.499153 -1.364334 -5.521057
v 3.816269 0.493698 -6.942970
v 3.138615 3.131460 -7.261612
v 7.361069 12.414368 -3.703484
v 1.769955 8.077522 -5.975670
v 1.475767 9.480827 -4.205902
v 1.114967 10.694832 -2.216354
v 1.105566 10.942360 0.000188
v 1.098715 10.727089 2.044895
v 1.385693 9.560226 4.156158
v 1.951557 7.740788 5.578621
v 17.667450 5.843508 1.790535
v 3.166222 3.138138 7.110931
v 3.944138 0.792168 6.391182
v 4.531860 -1.298988 5.413322
v 4.929596 -3.354324 4.216843
v -3.763145 -1.622398 -2.534359
v -3.674042 -1.837547 -1.879593
v 18.365356 9.789101 0.029553
v -4.672157 5.896593 -1.305613
v 11.289322 -1.422997 -5.365990
v -16.205963 3.127090 -0.450219
v 15.066589 3.587070 5.068596
v -12.666107 -2.435822 2.611809
v 18.447388 9.153000 0.154921
v -12.823868 -0.311790 -4.189804
v 18.360748 9.690826 -0.118401
v 16.294678 11.174240 -1.886353
v 18.467377 9.154930 0.283849
v -16.053802 -4.465607 0.452456
v 18.374939 9.507156 -0.135017
v 5.138420 -3.910858 3.206608
v -18.082306 -3.683777 0.027747
v -4.707878 5.726267 -2.028931
v -13.243835 4.352319 -0.528316
v 9.998520 3.349787 -7.375076
v -16.750641 -2.784882 2.699638
v 17.028900 10.544548 2.833347
v -4.368317 1.832054 -4.657738
v -9.391556 3.020006 1.484596
v -4.651924 5.835299 1.233204
v -8.907486 1.133209 -3.078831
v -13.259628 4.133450 1.680376
v 11.793167 -3.368469 -1.161097
v 18.025909 5.192028 -1.210367
v -4.677925 4.597785 -3.562256
v 12.032455 12.885086 0.796490
v -3.906441 0.055763 3.634880
v -12.712006 -1.488564 3.354820
v 12.653915 11.722946 -4.073944
v -8.244949 -1.708336 -1.336308
v -17.404572 0.309311 0.099787
v 16.038269 12.225845 -0.532283
v -16.356201 -3.507614 -1.932396
v -9.314194 3.152243 -2.046593
v -3.662148 -2.143120 1.238621
v -16.148071 2.731199 -1.475426
v -16.276184 3.100212 1.715633
v 18.378143 9.327393 -0.075020
v -3.712204 -1.466103 2.348198
v -4.237175 0.297455 -4.420227
v -4.280869 1.102814 -4.587593
v 18.426025 9.388565 0.162659
v 12.041000 12.997513 -0.826505
v -16.386902 -3.672226 2.084709
v -15.295227 -3.803528 -1.431843
v -12.546951 -2.591141 -2.695629
v 18.420654 9.189377 0.065594
v -17.569702 1.747250 1.447231
v 16.733429 10.040779 -2.629364
v -5.014175 4.928718 2.782227
v 1.002258 11.063126 1.086447
v -5.015167 4.524707 3.473846
v 3.590103 1.977013 6.650124
v 5.357010 -4.784653 1.292910
v 11.754852 -3.336990 1.109629
v 17.883484 4.996435 0.783594
v 17.858948 4.840214 -0.026442
v 17.927185 5.009609 -0.834002
v 18.111389 5.427525 -1.539345
v 17.655365 6.225899 -2.046478
v 17.258331 7.256031 -2.488503
v 16.867432 8.442764 -2.575073
v 17.852570 5.202450 1.152855
v 16.470947 10.747528 -2.238434
v 16.203430 11.590683 -1.558445
v 16.130554 12.164551 -0.929075
v 15.978241 12.211243 -0.112642
v 16.000702 11.962860 0.718904
v 16.172821 11.369339 1.492086
v 16.701172 10.853966 2.483768
v 18.414886 9.728943 0.174057
v 17.365173 8.546318 2.957699
v 17.721832 7.314865 2.743549
v 17.685760 6.244114 2.079155
v 17.783173 5.486404 1.492338
v -17.237854 -0.158890 0.119495
v -17.356018 0.194824 0.105674
v 18.356506 9.778557 -0.049286
v -12.710342 -1.493629 -3.247589
v 18.439392 9.495850 0.384303
v 18.442657 9.586029 0.338571
v 18.440033 9.542442 0.364371
vt 0.749154 0.946639
vt 0.748543 0.945923
vt 0.748094 0.945164
vt 0.750618 0.943936
vt 0.752378 0.949076
vt 0.751410 0.948413
vt 0.750571 0.947913
vt 0.749828 0.947371
vt 0.751887 0.943322
vt 0.753928 0.949461
vt 0.753207 0.949418
vt 0.751608 0.942482
vt 0.750218 0.938298
vt 0.750975 0.938337
vt 0.751743 0.938378
vt 0.752568 0.938599
vt 0.753300 0.939012
vt 0.753999 0.939564
vt 0.754663 0.940063
vt 0.755274 0.940661
vt 0.747514 0.943795
vt 0.747180 0.942687
vt 0.747192 0.941943
vt 0.747257 0.941167
vt 0.747464 0.940409
vt 0.747835 0.939794
vt 0.748307 0.939253
vt 0.748847 0.938767
vt 0.750332 0.943102
vt 0.749497 0.938411
vt 0.755750 0.941416
vt 0.756118 0.942196
vt 0.756496 0.942980
vt 0.756751 0.943766
vt 0.756795 0.944549
vt 0.756778 0.945350
vt 0.756774 0.946455
vt 0.756506 0.947749
vt 0.756208 0.948397
vt 0.755833 0.948942
vt 0.755301 0.949278
vt 0.754640 0.949445
vt 0.852188 0.316086
vt 0.851847 0.306681
vt 0.216779 0.737265
vt 0.213539 0.745663
vt 0.188627 0.749709
vt 0.770909 0.454107
vt 0.805146 0.458019
vt 0.847310 0.321642
vt 0.821817 0.318518
vt 0.772820 0.460877
vt 0.881681 0.517860
vt 0.852857 0.501406
vt 0.894661 0.372255
vt 0.901901 0.357502
vt 0.884778 0.512469
vt 0.829689 0.334034
vt 0.820042 0.334431
vt 0.774436 0.468175
vt 0.797209 0.464300
vt 0.890548 0.373938
vt 0.848274 0.355534
vt 0.847886 0.345816
vt 0.878403 0.351557
vt 0.894151 0.365289
vt 0.817567 0.352435
vt 0.798838 0.365840
vt 0.795599 0.357397
vt 0.419423 0.303011
vt 0.263838 0.311367
vt 0.263611 0.300449
vt 0.418261 0.285396
vt 0.378225 0.890300
vt 0.474602 0.916771
vt 0.469341 0.933749
vt 0.374040 0.908910
vt 0.024456 0.660993
vt 0.083511 0.642441
vt 0.090577 0.659143
vt 0.026918 0.679295
vt 0.062618 0.558637
vt 0.058456 0.542402
vt 0.131750 0.494935
vt 0.135203 0.515461
vt 0.787311 0.973596
vt 0.793446 0.966161
vt 0.510807 0.788229
vt 0.516310 0.766827
vt 0.591684 0.819206
vt 0.589837 0.832912
vt 0.781597 0.980853
vt 0.723244 0.880712
vt 0.689677 0.814525
vt 0.703453 0.804690
vt 0.728440 0.874490
vt 0.585353 0.100904
vt 0.521827 0.112212
vt 0.520646 0.099281
vt 0.583894 0.094625
vt 0.705073 0.962624
vt 0.702564 0.953690
vt 0.747746 0.944352
vt 0.703197 0.941770
vt 0.702907 0.927807
vt 0.747397 0.943516
vt 0.504861 0.808734
vt 0.583968 0.849864
vt 0.415559 0.268707
vt 0.509567 0.268593
vt 0.513344 0.284273
vt 0.520202 0.086384
vt 0.582944 0.087985
vt 0.770631 0.990852
vt 0.776465 0.987164
vt 0.798479 0.915030
vt 0.797803 0.905324
vt 0.582840 0.081198
vt 0.583299 0.074828
vt 0.621498 0.083449
vt 0.620972 0.084329
vt 0.763717 0.991920
vt 0.756405 0.991665
vt 0.021892 0.625937
vt 0.073028 0.594584
vt 0.078761 0.612356
vt 0.023034 0.637697
vt 0.754903 0.863231
vt 0.758810 0.776243
vt 0.770031 0.780004
vt 0.762056 0.864076
vt 0.107548 0.293505
vt 0.107159 0.284698
vt 0.177982 0.294244
vt 0.178854 0.299415
vt 0.794677 0.896242
vt 0.414016 0.762356
vt 0.408759 0.782365
vt 0.711165 0.968016
vt 0.720143 0.971978
vt 0.120198 0.085253
vt 0.120573 0.094563
vt 0.067105 0.093327
vt 0.066115 0.083905
vt 0.847176 0.402904
vt 0.838228 0.402149
vt 0.847230 0.377035
vt 0.855346 0.402716
vt 0.799311 0.926002
vt 0.728444 0.976996
vt 0.119086 0.454033
vt 0.125412 0.472049
vt 0.053438 0.526245
vt 0.048795 0.511430
vt 0.180959 0.072001
vt 0.180944 0.080935
vt 0.119893 0.076216
vt 0.120011 0.068110
vt 0.059499 0.729860
vt 0.035444 0.721885
vt 0.038541 0.714822
vt 0.062652 0.721355
vt 0.444028 0.086452
vt 0.444286 0.068420
vt 0.520511 0.073601
vt 0.628644 0.942286
vt 0.568216 0.911150
vt 0.576693 0.887459
vt 0.629888 0.919323
vt 0.718215 0.887693
vt 0.675967 0.827690
vt 0.542745 0.514975
vt 0.544457 0.526940
vt 0.475639 0.520379
vt 0.473653 0.509854
vt 0.180137 0.758995
vt 0.181022 0.753829
vt 0.265798 0.760390
vt 0.262952 0.770994
vt 0.179136 0.765106
vt 0.259856 0.782052
vt 0.179246 0.305868
vt 0.179420 0.313280
vt 0.263902 0.322227
vt 0.179488 0.321141
vt 0.876393 0.423598
vt 0.871716 0.399887
vt 0.877533 0.395863
vt 0.884222 0.417302
vt 0.734355 0.869542
vt 0.740789 0.865953
vt 0.181037 0.091361
vt 0.180620 0.102745
vt 0.065669 0.074833
vt 0.065726 0.066591
vt 0.248176 0.137622
vt 0.247051 0.130234
vt 0.365030 0.152752
vt 0.364738 0.173559
vt 0.066074 0.059057
vt 0.120323 0.059615
vt 0.403009 0.559881
vt 0.406039 0.570619
vt 0.277679 0.641423
vt 0.270605 0.615618
vt 0.110398 0.343113
vt 0.109391 0.351104
vt 0.067990 0.348214
vt 0.069094 0.339433
vt 0.262787 0.289363
vt 0.260872 0.278040
vt 0.411939 0.250673
vt 0.583040 0.332761
vt 0.578112 0.347535
vt 0.512186 0.359156
vt 0.513949 0.340396
vt 0.106774 0.276640
vt 0.066451 0.290659
vt 0.064852 0.284163
vt 0.181526 0.062713
vt 0.363193 0.134447
vt 0.359321 0.121272
vt 0.444520 0.128010
vt 0.446597 0.144802
vt 0.449538 0.157997
vt 0.706638 0.906350
vt 0.712039 0.895421
vt 0.177066 0.357732
vt 0.177893 0.350830
vt 0.261405 0.362471
vt 0.259877 0.370555
vt 0.181791 0.749530
vt 0.267910 0.751357
vt 0.724757 0.472160
vt 0.688903 0.478940
vt 0.688916 0.471958
vt 0.719386 0.464988
vt 0.176925 0.289439
vt 0.175816 0.284794
vt 0.255534 0.258156
vt 0.258844 0.268675
vt 0.165746 0.614720
vt 0.173865 0.637577
vt 0.171093 0.793591
vt 0.175114 0.779353
vt 0.253116 0.803483
vt 0.248416 0.821058
vt 0.395204 0.825088
vt 0.387662 0.858809
vt 0.578136 0.295192
vt 0.582835 0.306815
vt 0.514591 0.302351
vt 0.660587 0.469081
vt 0.654762 0.475028
vt 0.247584 0.087759
vt 0.246907 0.097619
vt 0.181421 0.111554
vt 0.248549 0.107467
vt 0.048017 0.329386
vt 0.031151 0.330280
vt 0.046760 0.313812
vt 0.048246 0.321941
vt 0.785628 0.879575
vt 0.820634 0.811496
vt 0.828463 0.826310
vt 0.790101 0.887375
vt 0.464873 0.474227
vt 0.386382 0.483060
vt 0.384374 0.470470
vt 0.463708 0.468156
vt 0.174766 0.280080
vt 0.251053 0.248050
vt 0.022815 0.308644
vt 0.017772 0.300876
vt 0.044788 0.295029
vt 0.046258 0.301248
vt 0.747717 0.863841
vt 0.248983 0.066007
vt 0.249175 0.077032
vt 0.795735 0.793461
vt 0.782118 0.786514
vt 0.793474 0.725824
vt 0.809779 0.735931
vt 0.178651 0.343947
vt 0.179177 0.336675
vt 0.263600 0.343284
vt 0.262678 0.353367
vt 0.417570 0.359417
vt 0.415326 0.375531
vt 0.411827 0.392457
vt 0.466755 0.482050
vt 0.468837 0.490402
vt 0.391863 0.510531
vt 0.388823 0.497532
vt 0.248383 0.533385
vt 0.242354 0.511173
vt 0.236575 0.485347
vt 0.612414 0.977543
vt 0.609989 0.986529
vt 0.542807 0.991920
vt 0.545167 0.975067
vt 0.256883 0.792885
vt 0.177607 0.771844
vt 0.848581 0.366674
vt 0.848702 0.362033
vt 0.886475 0.382193
vt 0.882122 0.389697
vt 0.734977 0.441857
vt 0.702844 0.448828
vt 0.706270 0.444001
vt 0.736590 0.438343
vt 0.182208 0.053219
vt 0.245016 0.040712
vt 0.247136 0.054181
vt 0.015194 0.319238
vt 0.025917 0.318651
vt 0.014923 0.311087
vt 0.471001 0.498573
vt 0.400652 0.543990
vt 0.394939 0.524554
vt 0.798922 0.958527
vt 0.756729 0.947001
vt 0.234417 0.862907
vt 0.238752 0.851603
vt 0.368910 0.926540
vt 0.108034 0.310486
vt 0.108245 0.320651
vt 0.069739 0.321807
vt 0.069502 0.313414
vt 0.233588 0.870217
vt 0.364180 0.942045
vt 0.534416 0.433679
vt 0.578013 0.423678
vt 0.580063 0.431169
vt 0.535617 0.441864
vt 0.179425 0.329016
vt 0.263919 0.332884
vt 0.419799 0.322732
vt 0.418989 0.343467
vt 0.808425 0.380283
vt 0.803237 0.373652
vt 0.183390 0.124576
vt 0.121082 0.121602
vt 0.120138 0.113035
vt 0.182750 0.118586
vt 0.419000 0.744281
vt 0.105223 0.755104
vt 0.056786 0.739318
vt 0.105814 0.744472
vt 0.547738 0.948644
vt 0.547328 0.963300
vt 0.464756 0.950552
vt 0.120218 0.050578
vt 0.120452 0.042314
vt 0.183240 0.045784
vt 0.069353 0.116705
vt 0.068776 0.109548
vt 0.891678 0.412188
vt 0.242914 0.840202
vt 0.166541 0.813491
vt 0.167595 0.808396
vt 0.877084 0.332210
vt 0.900504 0.335521
vt 0.899461 0.346004
vt 0.897227 0.356109
vt 0.829172 0.420412
vt 0.832485 0.400092
vt 0.838654 0.424221
vt 0.476656 0.526514
vt 0.737572 0.436510
vt 0.708793 0.440833
vt 0.054125 0.750087
vt 0.031384 0.736488
vt 0.032112 0.728085
vt 0.407278 0.577269
vt 0.477383 0.530923
vt 0.248311 0.119279
vt 0.849030 0.429559
vt 0.576027 0.267971
vt 0.576018 0.282098
vt 0.507450 0.249395
vt 0.847798 0.333475
vt 0.663145 0.757393
vt 0.679959 0.744622
vt 0.651187 0.775311
vt 0.066382 0.355855
vt 0.044928 0.351568
vt 0.046479 0.344814
vt 0.091647 0.679159
vt 0.179520 0.663787
vt 0.781264 0.873464
vt 0.701964 0.917224
vt 0.848458 0.370102
vt 0.801771 0.371048
vt 0.069661 0.330515
vt 0.576350 0.417362
vt 0.598878 0.411763
vt 0.600790 0.417710
vt 0.359172 0.086200
vt 0.358870 0.105032
vt 0.806092 0.406701
vt 0.814188 0.386357
vt 0.818617 0.392211
vt 0.810386 0.413153
vt 0.107842 0.302177
vt 0.068849 0.305432
vt 0.067786 0.297814
vt 0.541816 0.496628
vt 0.540577 0.484307
vt 0.591937 0.469265
vt 0.593550 0.480653
vt 0.231764 0.465499
vt 0.397800 0.211122
vt 0.404615 0.229300
vt 0.106896 0.358562
vt 0.359064 0.053847
vt 0.357538 0.069013
vt 0.586441 0.448390
vt 0.605815 0.439891
vt 0.607405 0.448786
vt 0.590042 0.458105
vt 0.596161 0.493908
vt 0.599398 0.507858
vt 0.117733 0.444876
vt 0.046418 0.500313
vt 0.119871 0.103794
vt 0.105876 0.735784
vt 0.866686 0.332654
vt 0.895689 0.360699
vt 0.499470 0.829571
vt 0.580320 0.869079
vt 0.495147 0.852160
vt 0.602700 0.424480
vt 0.604316 0.431779
vt 0.582728 0.439715
vt 0.735362 0.982607
vt 0.584237 0.068877
vt 0.621710 0.082687
vt 0.445264 0.048762
vt 0.522000 0.059894
vt 0.795035 0.390380
vt 0.799762 0.398473
vt 0.261180 0.588449
vt 0.254164 0.557746
vt 0.847539 0.375244
vt 0.863530 0.401598
vt 0.245769 0.029417
vt 0.610693 0.466783
vt 0.611835 0.475225
vt 0.249706 0.024472
vt 0.184133 0.039330
vt 0.443899 0.106944
vt 0.794946 0.339401
vt 0.793816 0.348493
vt 0.873927 0.317901
vt 0.099185 0.811254
vt 0.101546 0.795629
vt 0.527443 0.126499
vt 0.586369 0.108124
vt 0.535162 0.137989
vt 0.588981 0.116341
vt 0.848340 0.372837
vt 0.068222 0.101937
vt 0.859020 0.432000
vt 0.064835 0.712585
vt 0.041782 0.706424
vt 0.044373 0.699252
vt 0.066684 0.704624
vt 0.103656 0.778399
vt 0.048238 0.777182
vt 0.050984 0.761191
vt 0.048255 0.337132
vt 0.537263 0.452802
vt 0.538562 0.463584
vt 0.066611 0.051947
vt 0.067499 0.045177
vt 0.456296 0.985064
vt 0.460198 0.968258
vt 0.714534 0.794881
vt 0.727685 0.786456
vt 0.044088 0.794302
vt 0.018962 0.614964
vt 0.068618 0.576333
vt 0.015081 0.605259
vt 0.820791 0.417297
vt 0.824389 0.396624
vt 0.409383 0.240272
vt 0.108817 0.718557
vt 0.106614 0.727967
vt 0.679527 0.448828
vt 0.654762 0.425408
vt 0.683587 0.441862
vt 0.680255 0.447423
vt 0.097667 0.821713
vt 0.096415 0.829067
vt 0.038101 0.813155
vt 0.040327 0.805585
vt 0.514721 0.321760
vt 0.018954 0.325010
vt 0.422682 0.724730
vt 0.027139 0.783160
vt 0.028562 0.774905
vt 0.601526 0.515395
vt 0.545257 0.535713
vt 0.408704 0.402739
vt 0.697104 0.733209
vt 0.715599 0.725662
vt 0.800881 0.937763
vt 0.801592 0.949167
vt 0.756797 0.946182
vt 0.121755 0.127954
vt 0.070658 0.123199
vt 0.165559 0.817038
vt 0.012036 0.596176
vt 0.008162 0.587310
vt 0.047327 0.307907
vt 0.149092 0.560249
vt 0.156148 0.582936
vt 0.868097 0.429577
vt 0.402590 0.803942
vt 0.522278 0.748909
vt 0.425930 0.706851
vt 0.526158 0.736138
vt 0.657761 0.877563
vt 0.662698 0.858348
vt 0.362135 0.036800
vt 0.626094 0.953968
vt 0.620100 0.959973
vt 0.555462 0.932710
vt 0.031890 0.746971
vt 0.363605 0.020442
vt 0.666126 0.841395
vt 0.277357 0.649017
vt 0.184294 0.682482
vt 0.453873 0.169271
vt 0.560448 0.145018
vt 0.560041 0.145672
vt 0.534755 0.138643
vt 0.588574 0.116994
vt 0.597437 0.121782
vt 0.635026 0.908740
vt 0.030600 0.761666
vt 0.109403 0.332768
vt 0.141577 0.537195
vt 0.043286 0.685883
vt 0.539241 0.473395
vt 0.510696 0.376941
vt 0.508205 0.393427
vt 0.609041 0.457879
vt 0.587426 0.317604
vt 0.461463 0.457581
vt 0.462616 0.462744
vt 0.748931 0.990348
vt 0.743048 0.779620
vt 0.104588 0.766310
vt 0.483405 0.886308
vt 0.768974 0.866182
vt 0.182650 0.745538
vt 0.775532 0.869361
vt 0.810426 0.800379
vt 0.217060 0.416539
vt 0.219718 0.432409
vt 0.224677 0.451510
vt 0.615606 0.968634
vt 0.447253 0.030810
vt 0.525812 0.043146
vt 0.450797 0.017287
vt 0.896449 0.404618
vt 0.493972 0.213897
vt 0.500066 0.220939
vt 0.184051 0.128337
vt 0.633464 0.443817
vn 0.863720 0.478550 0.158042
vn 0.949123 0.298722 0.099653
vn 0.972129 0.177175 0.153541
vn 0.981535 0.005241 -0.191209
vn 0.907977 0.406186 -0.102910
vn 0.923175 0.375208 -0.083474
vn 0.861713 0.478993 0.167380
vn 0.929936 0.355920 0.092412
vn 0.981535 0.005241 -0.191209
vn 0.985882 0.031019 -0.164543
vn 0.924062 0.375574 -0.071093
vn 0.788454 0.614087 0.035192
vn 0.907977 0.406186 -0.102910
vn 0.978588 0.088185 -0.185981
vn 0.994652 0.035662 -0.096928
vn 0.990018 -0.019681 -0.139558
vn 0.985976 -0.049687 -0.159318
vn 0.982838 -0.003448 -0.184440
vn 0.987256 -0.029492 -0.156383
vn 0.988043 -0.006062 -0.154062
vn 0.979003 0.012519 -0.203463
vn 0.950608 0.070122 -0.302370
vn 0.978341 0.101205 0.180575
vn 0.952342 0.127891 0.276927
vn 0.984243 0.069324 0.162666
vn 0.988579 0.045751 0.143592
vn 0.987711 -0.006254 0.156168
vn 0.992421 0.014334 0.122042
vn 0.977533 -0.005757 0.210703
vn 0.996511 0.067135 0.049585
vn 0.994680 0.086098 -0.056558
vn 0.994680 0.086098 -0.056558
vn 0.996511 0.067135 0.049585
vn 0.999903 -0.001964 0.013803
vn 0.994652 0.035662 -0.096928
vn 0.978588 0.088185 -0.185981
vn 0.949410 0.053676 -0.309419
vn 0.952963 0.027386 -0.301847
vn 0.945654 0.007408 -0.325090
vn 0.919525 -0.007672 -0.392957
vn 0.935953 -0.044881 -0.349254
vn 0.939779 0.027719 -0.340656
vn 0.926348 0.188019 -0.326386
vn 0.887621 0.321082 -0.330205
vn 0.839402 0.379161 -0.389410
vn 0.784048 0.421028 -0.456075
vn 0.842041 0.410907 -0.349460
vn 0.886516 0.431335 -0.167450
vn 0.924062 0.375574 -0.071093
vn 0.985882 0.031019 -0.164543
vn -0.971288 -0.233561 -0.045269
vn -0.792777 -0.608823 -0.028983
vn -0.319937 -0.633661 0.704354
vn -0.277800 -0.616274 0.736908
vn -0.805260 -0.484707 0.341491
vn -0.272434 -0.687052 -0.673601
vn -0.792777 -0.608823 -0.028983
vn -0.971288 -0.233561 -0.045269
vn -0.803732 -0.413943 -0.427394
vn -0.284503 -0.613961 -0.736281
vn -0.282299 -0.545112 0.789405
vn -0.817229 -0.220633 0.532407
vn -0.988473 0.034899 0.147321
vn -0.805260 -0.484707 0.341491
vn -0.277800 -0.616274 0.736908
vn -0.979442 0.091862 -0.179599
vn -0.823877 -0.130979 -0.551426
vn -0.346535 -0.514174 -0.784563
vn -0.284503 -0.613961 -0.736281
vn -0.803732 -0.413943 -0.427394
vn -0.820486 0.313364 0.478127
vn -0.868402 0.494917 -0.030576
vn -0.854088 0.519047 -0.033520
vn -0.885843 0.397772 0.238870
vn -0.715089 0.204922 0.668322
vn -0.878343 0.435851 -0.196336
vn -0.811152 0.415491 -0.411583
vn -0.679583 0.140694 -0.719980
vn -0.823877 -0.130979 -0.551426
vn -0.979442 0.091862 -0.179599
vn -0.035280 -0.986322 -0.161009
vn -0.174624 -0.970808 -0.164436
vn -0.169336 -0.944133 -0.282732
vn -0.042146 -0.932375 -0.359027
vn -0.291408 0.356546 0.887669
vn 0.002062 0.541615 0.840624
vn 0.013887 0.579492 0.814860
vn -0.296608 0.459774 0.837037
vn 0.691732 0.280147 -0.665601
vn 0.384118 0.339740 -0.858505
vn 0.300740 0.526340 -0.795312
vn 0.624970 0.509519 -0.591441
vn 0.586614 -0.044629 -0.808636
vn 0.620124 -0.156482 -0.768739
vn 0.314324 -0.374353 -0.872388
vn 0.282643 -0.212487 -0.935394
vn 0.607492 0.574526 -0.548519
vn 0.839402 0.379161 -0.389410
vn 0.887621 0.321082 -0.330205
vn 0.624970 0.509519 -0.591441
vn 0.215414 -0.299605 0.929426
vn 0.283952 -0.443614 0.850046
vn 0.706012 -0.382378 0.596099
vn 0.615059 -0.231929 0.753600
vn 0.566014 0.635444 -0.525203
vn 0.784048 0.421028 -0.456075
vn 0.839402 0.379161 -0.389410
vn 0.607492 0.574526 -0.548519
vn 0.907489 -0.222705 0.356183
vn 0.747116 -0.435821 0.501874
vn 0.745937 -0.447620 0.493167
vn 0.906796 -0.224288 0.356953
vn 0.501650 0.835920 -0.222675
vn 0.125780 0.956920 -0.261693
vn 0.084758 0.994975 -0.053294
vn 0.477313 0.878346 -0.026084
vn 0.584231 0.527521 0.616762
vn 0.704223 0.270927 0.656254
vn 0.978341 0.101205 0.180575
vn 0.972129 0.177175 0.153541
vn 0.704223 0.270927 0.656254
vn 0.745240 0.188441 0.639616
vn 0.952342 0.127891 0.276927
vn 0.978341 0.101205 0.180575
vn 0.197506 -0.247036 0.948665
vn 0.215414 -0.299605 0.929426
vn 0.615059 -0.231929 0.753600
vn 0.550828 -0.144890 0.821946
vn -0.039301 -0.904232 -0.425229
vn 0.416061 -0.784653 -0.459578
vn 0.416286 -0.801723 -0.428890
vn -0.042146 -0.932375 -0.359027
vn 0.477313 0.878346 -0.026084
vn 0.084758 0.994975 -0.053294
vn 0.078544 0.993926 0.077084
vn 0.472137 0.876617 0.092890
vn 0.501650 0.835920 -0.222675
vn 0.886516 0.431335 -0.167450
vn 0.842041 0.410907 -0.349460
vn 0.529069 0.729087 -0.434187
vn 0.529069 0.729087 -0.434187
vn 0.842041 0.410907 -0.349460
vn 0.784048 0.421028 -0.456075
vn 0.566014 0.635444 -0.525203
vn 0.760660 0.086921 -0.643305
vn 0.919525 -0.007672 -0.392957
vn 0.945654 0.007408 -0.325090
vn 0.788953 0.052055 -0.612245
vn 0.475773 0.860128 0.183902
vn 0.488242 0.835904 0.250769
vn 0.923175 0.375208 -0.083474
vn 0.907977 0.406186 -0.102910
vn 0.477313 0.878346 -0.026084
vn 0.472137 0.876617 0.092890
vn 0.788454 0.614087 0.035192
vn 0.924062 0.375574 -0.071093
vn 0.754925 0.055047 -0.653497
vn 0.536781 0.106783 -0.836937
vn 0.484931 0.162396 -0.859342
vn 0.736273 0.063673 -0.673682
vn 0.968011 -0.234816 -0.088408
vn 0.813479 -0.580394 -0.037355
vn 0.784827 -0.540021 -0.304015
vn 0.955041 -0.227770 -0.189784
vn 0.242050 -0.851464 -0.465211
vn 0.223349 -0.804378 -0.550537
vn 0.106038 -0.828341 -0.550098
vn 0.124702 -0.904403 -0.408050
vn 0.788953 0.052055 -0.612245
vn 0.945654 0.007408 -0.325090
vn 0.952963 0.027386 -0.301847
vn 0.824174 -0.017344 -0.566072
vn -0.122786 -0.429713 0.894578
vn 0.215414 -0.299605 0.929426
vn 0.197506 -0.247036 0.948665
vn -0.125355 -0.357542 0.925446
vn 0.472740 0.713756 0.516788
vn 0.949123 0.298722 0.099653
vn 0.863720 0.478550 0.158042
vn 0.494051 0.702647 0.512055
vn -0.013708 0.984746 -0.173456
vn -0.052305 0.951653 -0.302688
vn -0.536244 0.771763 -0.341796
vn -0.566780 0.793254 -0.222506
vn 0.736273 0.063673 -0.673682
vn 0.484931 0.162396 -0.859342
vn 0.384118 0.339740 -0.858505
vn 0.691732 0.280147 -0.665601
vn -0.889462 0.435180 -0.139558
vn -0.905745 0.309323 -0.289734
vn -0.985306 -0.119740 -0.121798
vn -0.959972 0.278928 0.025569
vn 0.754925 0.055047 -0.653497
vn 0.935953 -0.044881 -0.349254
vn 0.919525 -0.007672 -0.392957
vn 0.760660 0.086921 -0.643305
vn 0.494051 0.702647 0.512055
vn 0.863720 0.478550 0.158042
vn 0.929936 0.355920 0.092412
vn 0.540725 0.668849 0.510154
vn 0.345236 -0.565692 -0.748869
vn 0.296894 -0.411356 -0.861766
vn 0.617039 -0.164014 -0.769651
vn 0.673699 -0.295703 -0.677267
vn -0.092213 0.964877 0.245986
vn -0.097722 0.993116 0.064591
vn 0.007647 0.999384 0.034238
vn 0.015252 0.944755 0.327422
vn 0.028532 -0.501287 0.864811
vn -0.282299 -0.545112 0.789405
vn -0.277800 -0.616274 0.736908
vn 0.018804 -0.541213 0.840675
vn -0.163222 0.986266 0.025253
vn -0.151451 0.984160 0.092154
vn 0.098733 0.982284 0.159280
vn 0.078544 0.993926 0.077084
vn 0.704223 0.270927 0.656254
vn 0.344035 0.393696 0.852434
vn 0.477473 0.111323 0.871566
vn 0.745240 0.188441 0.639616
vn 0.918347 -0.237856 0.316329
vn 0.706012 -0.382378 0.596099
vn 0.747116 -0.435821 0.501874
vn 0.907489 -0.222705 0.356183
vn -0.067520 0.382679 -0.921411
vn -0.104149 0.510804 -0.853365
vn -0.129760 0.437117 -0.889995
vn -0.109991 0.314366 -0.942908
vn 0.085333 -0.611386 0.786718
vn 0.103481 -0.723311 0.682724
vn -0.145705 -0.653366 0.742888
vn -0.142005 -0.555980 0.818975
vn 0.060705 -0.469543 0.880820
vn 0.085333 -0.611386 0.786718
vn -0.142005 -0.555980 0.818975
vn -0.153019 -0.432255 0.888674
vn 0.968011 -0.234816 -0.088408
vn 0.955041 -0.227770 -0.189784
vn 0.982838 -0.003448 -0.184440
vn 0.985976 -0.049687 -0.159318
vn 0.139477 -0.949185 -0.282124
vn -0.169336 -0.944133 -0.282732
vn -0.174624 -0.970808 -0.164436
vn 0.147934 -0.975034 -0.165602
vn 0.147934 -0.975034 -0.165602
vn -0.174624 -0.970808 -0.164436
vn -0.179418 -0.982386 -0.052227
vn 0.150814 -0.987203 -0.051821
vn -0.519351 0.726810 0.449468
vn -0.947205 0.196924 0.253029
vn -0.921546 0.114791 0.370913
vn -0.504014 0.654966 0.563018
vn 0.928898 -0.247537 0.275452
vn 0.951507 -0.264101 0.157752
vn 0.994652 0.035662 -0.096928
vn 0.999903 -0.001964 0.013803
vn -0.116290 0.992862 0.026477
vn -0.146469 0.982852 -0.112023
vn -0.052305 0.951653 -0.302688
vn -0.013708 0.984746 -0.173456
vn 0.584231 0.527521 0.616762
vn 0.972129 0.177175 0.153541
vn 0.949123 0.298722 0.099653
vn 0.472740 0.713756 0.516788
vn 0.015252 0.944755 0.327422
vn 0.007647 0.999384 0.034238
vn -0.585275 0.810751 0.011691
vn -0.558814 0.782714 0.274018
vn -0.470339 0.537446 -0.699952
vn -0.520966 0.756674 -0.395017
vn -0.437489 0.773743 -0.458176
vn -0.369593 0.606103 -0.704301
vn 0.015252 0.944755 0.327422
vn -0.558814 0.782714 0.274018
vn -0.519351 0.726810 0.449468
vn 0.000243 0.891672 0.452682
vn -0.403934 0.353473 -0.843739
vn -0.470339 0.537446 -0.699952
vn -0.369593 0.606103 -0.704301
vn -0.280560 0.359175 -0.890101
vn 0.279627 -0.932081 0.230290
vn 0.255412 -0.797968 0.545905
vn 0.153158 -0.874324 0.460543
vn 0.182723 -0.962048 0.202675
vn -0.167079 -0.917687 -0.360465
vn -0.186500 -0.837343 -0.513883
vn -0.054182 -0.843498 -0.534393
vn -0.039301 -0.904232 -0.425229
vn 0.784567 -0.561465 0.263080
vn 0.766517 -0.522637 0.373232
vn 0.441170 -0.804921 0.396827
vn 0.434242 -0.878490 0.199221
vn -0.169336 -0.944133 -0.282732
vn -0.167079 -0.917687 -0.360465
vn -0.039301 -0.904232 -0.425229
vn -0.042146 -0.932375 -0.359027
vn 0.186851 -0.685239 -0.703942
vn 0.223349 -0.804378 -0.550537
vn 0.107788 -0.792868 -0.599785
vn 0.027678 -0.686861 -0.726262
vn -0.092213 0.964877 0.245986
vn 0.015252 0.944755 0.327422
vn 0.000243 0.891672 0.452682
vn -0.099622 0.931061 0.351000
vn -0.466345 0.766905 -0.440886
vn -0.486114 0.807007 -0.335310
vn -0.151055 0.945787 -0.287522
vn -0.136045 0.858408 -0.494598
vn -0.437489 0.773743 -0.458176
vn -0.466345 0.766905 -0.440886
vn -0.136045 0.858408 -0.494598
vn -0.113973 0.796567 -0.593710
vn 0.854773 -0.059367 0.515596
vn 0.900247 -0.149593 0.408873
vn 0.987711 -0.006254 0.156168
vn 0.988579 0.045751 0.143592
vn 0.111235 -0.766726 0.632264
vn 0.129039 -0.787502 0.602652
vn -0.178611 -0.800839 0.571624
vn -0.164534 -0.711399 0.683257
vn 0.103481 -0.723311 0.682724
vn 0.111235 -0.766726 0.632264
vn -0.164534 -0.711399 0.683257
vn -0.145705 -0.653366 0.742888
vn -0.319937 -0.633661 0.704354
vn -0.792777 -0.608823 -0.028983
vn -0.714782 -0.698791 -0.027910
vn -0.291731 -0.708278 0.642834
vn 0.906796 -0.224288 0.356953
vn 0.928898 -0.247537 0.275452
vn 0.999903 -0.001964 0.013803
vn 0.996511 0.067135 0.049585
vn 0.084196 -0.734371 -0.673506
vn 0.055842 -0.664704 -0.745017
vn -0.188494 -0.768019 -0.612060
vn -0.196091 -0.737709 -0.646014
vn 0.106038 -0.828341 -0.550098
vn 0.084196 -0.734371 -0.673506
vn -0.196091 -0.737709 -0.646014
vn -0.186500 -0.837343 -0.513883
vn 0.051443 0.340931 -0.938680
vn 0.019474 0.434893 -0.900272
vn 0.300740 0.526340 -0.795312
vn 0.384118 0.339740 -0.858505
vn -0.050787 0.205823 0.977271
vn -0.009056 0.042579 0.999052
vn -0.263019 -0.086115 0.960940
vn -0.317913 0.151615 0.935919
vn -0.263019 -0.086115 0.960940
vn -0.200849 -0.134621 0.970328
vn -0.269022 0.199286 0.942291
vn -0.317913 0.151615 0.935919
vn 0.773384 -0.537600 -0.335952
vn 0.784827 -0.540021 -0.304015
vn 0.413485 -0.874470 -0.253640
vn 0.416286 -0.801723 -0.428890
vn -0.250049 -0.710727 -0.657528
vn -0.714782 -0.698791 -0.027910
vn -0.792777 -0.608823 -0.028983
vn -0.272434 -0.687052 -0.673601
vn -0.146469 0.982852 -0.112023
vn -0.116290 0.992862 0.026477
vn -0.586687 0.805658 0.081935
vn -0.579240 0.811643 -0.075615
vn -0.168071 0.953529 -0.250069
vn -0.146469 0.982852 -0.112023
vn -0.579240 0.811643 -0.075615
vn -0.548288 0.788108 -0.279760
vn 0.031693 -0.985395 0.167310
vn -0.301244 -0.949518 -0.087567
vn 0.037824 -0.955574 -0.292314
vn 0.167604 -0.985513 -0.025959
vn 0.840000 -0.035398 -0.541430
vn 0.673699 -0.295703 -0.677267
vn 0.617039 -0.164014 -0.769651
vn 0.821125 -0.010064 -0.570660
vn -0.009744 -0.478309 -0.878138
vn -0.285549 -0.316051 -0.904751
vn -0.244387 -0.606823 -0.756334
vn 0.010152 -0.590069 -0.807289
vn 0.010152 -0.590069 -0.807289
vn -0.244387 -0.606823 -0.756334
vn -0.188494 -0.768019 -0.612060
vn 0.055842 -0.664704 -0.745017
vn -0.590713 -0.805448 -0.048083
vn -0.714782 -0.698791 -0.027910
vn -0.250049 -0.710727 -0.657528
vn -0.163463 -0.793099 -0.586748
vn 0.963983 -0.257664 0.065918
vn 0.968011 -0.234816 -0.088408
vn 0.985976 -0.049687 -0.159318
vn 0.990018 -0.019681 -0.139558
vn -0.097722 0.993116 0.064591
vn -0.092213 0.964877 0.245986
vn -0.567909 0.781225 0.259167
vn -0.586233 0.803054 0.106936
vn -0.116290 0.992862 0.026477
vn -0.097722 0.993116 0.064591
vn -0.586233 0.803054 0.106936
vn -0.586687 0.805658 0.081935
vn 0.765064 -0.569636 -0.300318
vn 0.773384 -0.537600 -0.335952
vn 0.416286 -0.801723 -0.428890
vn 0.416061 -0.784653 -0.459578
vn 0.160731 -0.848500 0.504195
vn 0.178923 -0.940710 0.288187
vn -0.191116 -0.916680 0.350959
vn -0.183369 -0.865393 0.466337
vn -0.191116 -0.916680 0.350959
vn -0.036591 -0.922720 0.383730
vn -0.052417 -0.856493 0.513491
vn -0.183369 -0.865393 0.466337
vn -0.183369 -0.865393 0.466337
vn -0.052417 -0.856493 0.513491
vn -0.074147 -0.766649 0.637771
vn -0.178611 -0.800839 0.571624
vn 0.129039 -0.787502 0.602652
vn 0.160731 -0.848500 0.504195
vn -0.183369 -0.865393 0.466337
vn -0.178611 -0.800839 0.571624
vn -0.005099 -0.287019 -0.957911
vn -0.041684 0.011980 -0.999059
vn -0.320562 -0.051674 -0.945817
vn -0.289822 -0.226371 -0.929924
vn -0.320562 -0.051674 -0.945817
vn -0.191625 -0.036311 -0.980796
vn -0.150934 -0.168687 -0.974045
vn -0.289822 -0.226371 -0.929924
vn -0.289822 -0.226371 -0.929924
vn -0.150934 -0.168687 -0.974045
vn -0.119504 -0.261982 -0.957645
vn -0.285549 -0.316051 -0.904751
vn -0.009744 -0.478309 -0.878138
vn -0.005099 -0.287019 -0.957911
vn -0.289822 -0.226371 -0.929924
vn -0.285549 -0.316051 -0.904751
vn 0.540725 0.668849 0.510154
vn 0.531059 0.752321 0.389858
vn 0.201673 0.856970 0.474268
vn 0.260054 0.604044 0.753328
vn 0.060705 -0.469543 0.880820
vn -0.153019 -0.432255 0.888674
vn -0.186273 -0.324171 0.927478
vn 0.030885 -0.244416 0.969178
vn 0.030885 -0.244416 0.969178
vn -0.186273 -0.324171 0.927478
vn -0.263019 -0.086115 0.960940
vn -0.009056 0.042579 0.999052
vn -0.990022 -0.124004 -0.066930
vn -0.975919 0.213056 -0.046784
vn -0.894032 0.205387 0.398151
vn -0.919365 0.107830 0.378339
vn -0.291731 -0.708278 0.642834
vn -0.714782 -0.698791 -0.027910
vn -0.590713 -0.805448 -0.048083
vn -0.169784 -0.867059 0.468382
vn -0.099622 0.931061 0.351000
vn -0.118746 0.903555 0.411688
vn -0.517876 0.753370 0.405262
vn -0.540640 0.770303 0.338145
vn -0.092213 0.964877 0.245986
vn -0.099622 0.931061 0.351000
vn -0.540640 0.770303 0.338145
vn -0.567909 0.781225 0.259167
vn -0.068809 -0.847044 -0.527051
vn -0.458684 -0.884069 -0.089621
vn -0.590713 -0.805448 -0.048083
vn -0.163463 -0.793099 -0.586748
vn -0.081346 0.181777 -0.979969
vn -0.109991 0.314366 -0.942908
vn -0.374215 0.259645 -0.890251
vn -0.346476 0.126623 -0.929473
vn -0.041684 0.011980 -0.999059
vn -0.081346 0.181777 -0.979969
vn -0.346476 0.126623 -0.929473
vn -0.320562 -0.051674 -0.945817
vn 0.691732 0.280147 -0.665601
vn 0.624970 0.509519 -0.591441
vn 0.887621 0.321082 -0.330205
vn 0.926348 0.188019 -0.326386
vn -0.453202 0.604391 0.655225
vn -0.377825 0.434679 0.817498
vn -0.296608 0.459774 0.837037
vn -0.329768 0.530604 0.780841
vn 0.280188 -0.937796 -0.205020
vn 0.286217 -0.954751 -0.080808
vn 0.237382 -0.969775 -0.056445
vn 0.231942 -0.947318 -0.220887
vn -0.517876 0.753370 0.405262
vn -0.453202 0.604391 0.655225
vn -0.329768 0.530604 0.780841
vn -0.413044 0.678017 0.608019
vn 0.186851 -0.685239 -0.703942
vn 0.027678 -0.686861 -0.726262
vn -0.027379 -0.562809 -0.826134
vn 0.148611 -0.525992 -0.837405
vn 0.165922 -0.983883 0.066670
vn 0.150814 -0.987203 -0.051821
vn -0.179418 -0.982386 -0.052227
vn -0.188950 -0.973670 0.127534
vn -0.179418 -0.982386 -0.052227
vn -0.026235 -0.997615 -0.063842
vn -0.022372 -0.994927 0.098076
vn -0.188950 -0.973670 0.127534
vn -0.188950 -0.973670 0.127534
vn -0.022372 -0.994927 0.098076
vn -0.036591 -0.922720 0.383730
vn -0.191116 -0.916680 0.350959
vn 0.178923 -0.940710 0.288187
vn 0.165922 -0.983883 0.066670
vn -0.188950 -0.973670 0.127534
vn -0.191116 -0.916680 0.350959
vn -0.877763 0.333792 -0.343678
vn -0.811152 0.415491 -0.411583
vn -0.868402 0.494917 -0.030576
vn -0.975919 0.213056 -0.046784
vn -0.109991 0.314366 -0.942908
vn -0.129760 0.437117 -0.889995
vn -0.403934 0.353473 -0.843739
vn -0.374215 0.259645 -0.890251
vn -0.184060 0.837009 -0.515303
vn -0.126099 0.831431 -0.541129
vn -0.112678 0.945196 -0.306444
vn -0.180926 0.944228 -0.275134
vn 0.951507 -0.264101 0.157752
vn 0.963983 -0.257664 0.065918
vn 0.990018 -0.019681 -0.139558
vn 0.994652 0.035662 -0.096928
vn -0.142005 -0.555980 0.818975
vn -0.145705 -0.653366 0.742888
vn -0.119707 -0.518364 0.846740
vn -0.122786 -0.429713 0.894578
vn 0.067649 -0.455986 0.887412
vn 0.000737 -0.411515 0.911403
vn 0.028532 -0.501287 0.864811
vn 0.104641 -0.545382 0.831630
vn -0.153019 -0.432255 0.888674
vn -0.142005 -0.555980 0.818975
vn -0.122786 -0.429713 0.894578
vn -0.125355 -0.357542 0.925446
vn 0.166255 0.657960 0.734471
vn 0.229343 0.583348 0.779171
vn 0.014413 0.523839 0.851696
vn 0.013887 0.579492 0.814860
vn -0.027349 0.858151 0.512668
vn -0.041740 0.764192 0.643637
vn -0.126869 0.797472 0.589867
vn -0.118746 0.903555 0.411688
vn -0.126099 0.831431 -0.541129
vn -0.540621 0.630255 -0.557232
vn -0.534210 0.754865 -0.380523
vn -0.112678 0.945196 -0.306444
vn -0.174624 -0.970808 -0.164436
vn -0.035280 -0.986322 -0.161009
vn -0.026235 -0.997615 -0.063842
vn -0.179418 -0.982386 -0.052227
vn -0.504014 0.654966 0.563018
vn -0.921546 0.114791 0.370913
vn -0.919365 0.107830 0.378339
vn -0.493126 0.523318 0.694957
vn -0.343994 0.293603 0.891888
vn -0.377825 0.434679 0.817498
vn -0.112134 0.619197 0.777188
vn -0.087024 0.381985 0.920062
vn -0.817229 -0.220633 0.532407
vn -0.448662 -0.190223 0.873223
vn -0.530538 0.065917 0.845094
vn -0.715089 0.204922 0.668322
vn -0.521983 0.778358 -0.348844
vn -0.885666 0.256826 -0.386829
vn -0.905745 0.309323 -0.289734
vn -0.536244 0.771763 -0.341796
vn -0.317913 0.151615 0.935919
vn -0.343994 0.293603 0.891888
vn -0.087024 0.381985 0.920062
vn -0.050787 0.205823 0.977271
vn -0.470339 0.537446 -0.699952
vn -0.403934 0.353473 -0.843739
vn -0.129760 0.437117 -0.889995
vn -0.152717 0.582697 -0.798211
vn -0.070890 -0.934971 0.347568
vn -0.169784 -0.867059 0.468382
vn -0.590713 -0.805448 -0.048083
vn -0.458684 -0.884069 -0.089621
vn -0.123300 -0.268212 0.955437
vn -0.448662 -0.190223 0.873223
vn -0.203490 -0.438363 0.875460
vn 0.000737 -0.411515 0.911403
vn -0.520966 0.756674 -0.395017
vn -0.470339 0.537446 -0.699952
vn -0.152717 0.582697 -0.798211
vn -0.184060 0.837009 -0.515303
vn -0.167079 -0.917687 -0.360465
vn -0.169336 -0.944133 -0.282732
vn 0.139477 -0.949185 -0.282124
vn 0.124702 -0.904403 -0.408050
vn -0.186500 -0.837343 -0.513883
vn -0.167079 -0.917687 -0.360465
vn 0.124702 -0.904403 -0.408050
vn 0.106038 -0.828341 -0.550098
vn -0.530258 0.795741 -0.292614
vn -0.520966 0.756674 -0.395017
vn -0.184060 0.837009 -0.515303
vn -0.180926 0.944228 -0.275134
vn -0.536244 0.771763 -0.341796
vn -0.905745 0.309323 -0.289734
vn -0.889462 0.435180 -0.139558
vn -0.566780 0.793254 -0.222506
vn 0.748504 -0.505463 -0.429242
vn 0.765064 -0.569636 -0.300318
vn 0.416061 -0.784653 -0.459578
vn 0.407068 -0.756347 -0.512089
vn -0.548288 0.788108 -0.279760
vn -0.530258 0.795741 -0.292614
vn -0.180926 0.944228 -0.275134
vn -0.168071 0.953529 -0.250069
vn -0.989422 0.139359 -0.040290
vn -0.979442 0.091862 -0.179599
vn -0.803732 -0.413943 -0.427394
vn -0.971288 -0.233561 -0.045269
vn 0.366611 -0.579496 0.727860
vn 0.418399 -0.677372 0.605070
vn 0.745937 -0.447620 0.493167
vn 0.747116 -0.435821 0.501874
vn 0.283952 -0.443614 0.850046
vn 0.366611 -0.579496 0.727860
vn 0.747116 -0.435821 0.501874
vn 0.706012 -0.382378 0.596099
vn 0.098672 -0.710169 0.697082
vn -0.291731 -0.708278 0.642834
vn -0.169784 -0.867059 0.468382
vn 0.153158 -0.874324 0.460543
vn 0.269567 0.645786 -0.714349
vn 0.300740 0.526340 -0.795312
vn 0.019474 0.434893 -0.900272
vn -0.041206 0.634923 -0.771476
vn 0.821125 -0.010064 -0.570660
vn 0.949410 0.053676 -0.309419
vn 0.950608 0.070122 -0.302370
vn 0.840000 -0.035398 -0.541430
vn 0.840000 -0.035398 -0.541430
vn 0.950608 0.070122 -0.302370
vn 0.979003 0.012519 -0.203463
vn 0.932332 -0.183520 -0.311573
vn 0.809866 0.057385 0.583801
vn 0.854773 -0.059367 0.515596
vn 0.988579 0.045751 0.143592
vn 0.984243 0.069324 0.162666
vn -0.921546 0.114791 0.370913
vn -0.956697 -0.282823 -0.068864
vn -0.990022 -0.124004 -0.066930
vn -0.919365 0.107830 0.378339
vn -0.811152 0.415491 -0.411583
vn -0.878343 0.435851 -0.196336
vn -0.854088 0.519047 -0.033520
vn -0.868402 0.494917 -0.030576
vn 0.213235 -0.976043 0.043250
vn 0.031693 -0.985395 0.167310
vn 0.167604 -0.985513 -0.025959
vn 0.237382 -0.969775 -0.056445
vn 0.107788 -0.792868 -0.599785
vn -0.250049 -0.710727 -0.657528
vn -0.272434 -0.687052 -0.673601
vn 0.027678 -0.686861 -0.726262
vn -0.579240 0.811643 -0.075615
vn -0.586687 0.805658 0.081935
vn -0.476412 0.878982 0.020535
vn -0.484156 0.871608 -0.076761
vn -0.538222 0.511357 -0.669948
vn -0.897909 0.144289 -0.415861
vn -0.886416 0.097316 -0.452544
vn -0.540621 0.630255 -0.557232
vn -0.548288 0.788108 -0.279760
vn -0.579240 0.811643 -0.075615
vn -0.484156 0.871608 -0.076761
vn -0.486114 0.807007 -0.335310
vn 0.259491 -0.893427 -0.366678
vn 0.204305 -0.893713 -0.399420
vn 0.167511 -0.844543 -0.508614
vn 0.242050 -0.851464 -0.465211
vn -0.038514 0.285286 -0.957668
vn 0.001539 0.133897 -0.990994
vn -0.375339 0.089922 -0.922516
vn -0.410571 0.257576 -0.874692
vn -0.285549 -0.316051 -0.904751
vn -0.119504 -0.261982 -0.957645
vn -0.068676 -0.548214 -0.833514
vn -0.244387 -0.606823 -0.756334
vn -0.244387 -0.606823 -0.756334
vn -0.068676 -0.548214 -0.833514
vn -0.070427 -0.675056 -0.734397
vn -0.188494 -0.768019 -0.612060
vn 0.225567 -0.686130 0.691625
vn 0.098672 -0.710169 0.697082
vn 0.153158 -0.874324 0.460543
vn 0.255412 -0.797968 0.545905
vn -0.567909 0.781225 0.259167
vn -0.480511 0.819588 0.312065
vn -0.482899 0.869375 0.104864
vn -0.586233 0.803054 0.106936
vn -0.586233 0.803054 0.106936
vn -0.482899 0.869375 0.104864
vn -0.476412 0.878982 0.020535
vn -0.586687 0.805658 0.081935
vn -0.095804 -0.536683 -0.838328
vn -0.356916 -0.482231 -0.800040
vn -0.534614 -0.270271 -0.800713
vn -0.256449 -0.273005 -0.927202
vn -0.104149 0.510804 -0.853365
vn -0.067520 0.382679 -0.921411
vn -0.468470 0.367385 -0.803470
vn -0.527879 0.462155 -0.712571
vn 0.407068 -0.756347 -0.512089
vn 0.345236 -0.565692 -0.748869
vn 0.673699 -0.295703 -0.677267
vn 0.748504 -0.505463 -0.429242
vn -0.092108 0.942668 -0.320771
vn -0.052305 0.951653 -0.302688
vn -0.146469 0.982852 -0.112023
vn -0.168071 0.953529 -0.250069
vn -0.168071 0.953529 -0.250069
vn -0.180926 0.944228 -0.275134
vn -0.112678 0.945196 -0.306444
vn -0.092108 0.942668 -0.320771
vn 0.155481 -0.631342 0.759758
vn 0.104641 -0.545382 0.831630
vn 0.028532 -0.501287 0.864811
vn 0.018804 -0.541213 0.840675
vn -0.988473 0.034899 0.147321
vn -0.817229 -0.220633 0.532407
vn -0.715089 0.204922 0.668322
vn -0.885843 0.397772 0.238870
vn 0.219498 -0.292854 0.930622
vn 0.197506 -0.247036 0.948665
vn 0.550828 -0.144890 0.821946
vn 0.542827 -0.102961 0.833509
vn 0.153695 -0.043397 0.987165
vn 0.219498 -0.292854 0.930622
vn 0.542827 -0.102961 0.833509
vn 0.477473 0.111323 0.871566
vn -0.027379 -0.562809 -0.826134
vn -0.284503 -0.613961 -0.736281
vn -0.346535 -0.514174 -0.784563
vn -0.038506 -0.553318 -0.832079
vn 0.918347 -0.237856 0.316329
vn 0.907489 -0.222705 0.356183
vn 0.977533 -0.005757 0.210703
vn 0.992421 0.014334 0.122042
vn 0.540725 0.668849 0.510154
vn 0.929936 0.355920 0.092412
vn 0.861713 0.478993 0.167380
vn 0.531059 0.752321 0.389858
vn 0.531059 0.752321 0.389858
vn 0.861713 0.478993 0.167380
vn 0.923175 0.375208 -0.083474
vn 0.488242 0.835904 0.250769
vn -0.151451 0.984160 0.092154
vn -0.158793 0.961361 0.224876
vn 0.122694 0.972150 0.199678
vn 0.098733 0.982284 0.159280
vn -0.468470 0.367385 -0.803470
vn -0.811152 0.415491 -0.411583
vn -0.877763 0.333792 -0.343678
vn -0.527879 0.462155 -0.712571
vn -0.374215 0.259645 -0.890251
vn -0.259347 0.292227 -0.920512
vn -0.243626 0.187410 -0.951590
vn -0.346476 0.126623 -0.929473
vn -0.346476 0.126623 -0.929473
vn -0.243626 0.187410 -0.951590
vn -0.191625 -0.036311 -0.980796
vn -0.320562 -0.051674 -0.945817
vn -0.959972 0.278928 0.025569
vn -0.985306 -0.119740 -0.121798
vn -0.972926 -0.191383 -0.129564
vn -0.959412 0.241269 0.146005
vn -0.453202 0.604391 0.655225
vn -0.517876 0.753370 0.405262
vn -0.118746 0.903555 0.411688
vn -0.126869 0.797472 0.589867
vn -0.468470 0.367385 -0.803470
vn -0.410571 0.257576 -0.874692
vn -0.679583 0.140694 -0.719980
vn -0.811152 0.415491 -0.411583
vn -0.377825 0.434679 0.817498
vn -0.453202 0.604391 0.655225
vn -0.126869 0.797472 0.589867
vn -0.112134 0.619197 0.777188
vn 0.078544 0.993926 0.077084
vn 0.084758 0.994975 -0.053294
vn -0.167378 0.985091 -0.039751
vn -0.163222 0.986266 0.025253
vn -0.534614 -0.270271 -0.800713
vn -0.823877 -0.130979 -0.551426
vn -0.679583 0.140694 -0.719980
vn -0.576674 -0.021041 -0.816703
vn -0.988473 0.034899 0.147321
vn -0.989422 0.139359 -0.040290
vn -0.971288 -0.233561 -0.045269
vn -0.805260 -0.484707 0.341491
vn -0.259347 0.292227 -0.920512
vn -0.280560 0.359175 -0.890101
vn 0.019474 0.434893 -0.900272
vn 0.051443 0.340931 -0.938680
vn -0.087024 0.381985 0.920062
vn -0.073021 0.390532 0.917689
vn -0.063246 0.288200 0.955479
vn -0.050787 0.205823 0.977271
vn 0.985882 0.031019 -0.164543
vn 0.978588 0.088185 -0.185981
vn 0.950608 0.070122 -0.302370
vn 0.949410 0.053676 -0.309419
vn -0.291408 0.356546 0.887669
vn -0.296608 0.459774 0.837037
vn -0.377825 0.434679 0.817498
vn -0.343994 0.293603 0.891888
vn 0.170043 0.881180 -0.441144
vn 0.125780 0.956920 -0.261693
vn 0.501650 0.835920 -0.222675
vn 0.529069 0.729087 -0.434187
vn 0.213158 0.793020 -0.570687
vn 0.170043 0.881180 -0.441144
vn 0.529069 0.729087 -0.434187
vn 0.566014 0.635444 -0.525203
vn -0.269022 0.199286 0.942291
vn -0.291408 0.356546 0.887669
vn -0.343994 0.293603 0.891888
vn -0.317913 0.151615 0.935919
vn -0.894032 0.205387 0.398151
vn -0.975919 0.213056 -0.046784
vn -0.868402 0.494917 -0.030576
vn -0.820486 0.313364 0.478127
vn -0.947205 0.196924 0.253029
vn -0.965222 -0.247063 -0.085480
vn -0.956697 -0.282823 -0.068864
vn -0.921546 0.114791 0.370913
vn 0.501650 0.835920 -0.222675
vn 0.477313 0.878346 -0.026084
vn 0.924062 0.375574 -0.071093
vn 0.886516 0.431335 -0.167450
vn -0.092108 0.942668 -0.320771
vn -0.112678 0.945196 -0.306444
vn -0.534210 0.754865 -0.380523
vn -0.521983 0.778358 -0.348844
vn -0.566780 0.793254 -0.222506
vn -0.889462 0.435180 -0.139558
vn -0.959972 0.278928 0.025569
vn -0.585275 0.810751 0.011691
vn 0.039112 -0.584319 0.810581
vn -0.319937 -0.633661 0.704354
vn -0.291731 -0.708278 0.642834
vn 0.098672 -0.710169 0.697082
vn -0.466345 0.766905 -0.440886
vn -0.437489 0.773743 -0.458176
vn -0.520966 0.756674 -0.395017
vn -0.530258 0.795741 -0.292614
vn 0.237382 -0.969775 -0.056445
vn 0.167604 -0.985513 -0.025959
vn 0.037824 -0.955574 -0.292314
vn 0.231942 -0.947318 -0.220887
vn -0.007324 0.050898 0.998677
vn -0.063246 0.288200 0.955479
vn -0.422289 0.251196 0.870961
vn -0.321381 0.014107 0.946845
vn -0.486114 0.807007 -0.335310
vn -0.466345 0.766905 -0.440886
vn -0.530258 0.795741 -0.292614
vn -0.548288 0.788108 -0.279760
vn -0.959412 0.241269 0.146005
vn -0.972926 -0.191383 -0.129564
vn -0.965222 -0.247063 -0.085480
vn -0.947205 0.196924 0.253029
vn 0.153158 -0.874324 0.460543
vn -0.169784 -0.867059 0.468382
vn -0.070890 -0.934971 0.347568
vn 0.182723 -0.962048 0.202675
vn 0.152262 -0.533742 -0.831826
vn -0.038506 -0.553318 -0.832079
vn -0.095804 -0.536683 -0.838328
vn 0.155162 -0.550593 -0.820227
vn -0.027349 0.858151 0.512668
vn -0.504014 0.654966 0.563018
vn -0.493126 0.523318 0.694957
vn -0.041740 0.764192 0.643637
vn 0.260054 0.604044 0.753328
vn 0.201673 0.856970 0.474268
vn -0.136878 0.845076 0.516828
vn -0.045995 0.606541 0.793720
vn 0.746737 -0.468039 0.472570
vn 0.766517 -0.522637 0.373232
vn 0.951507 -0.264101 0.157752
vn 0.928898 -0.247537 0.275452
vn 0.745937 -0.447620 0.493167
vn 0.746737 -0.468039 0.472570
vn 0.928898 -0.247537 0.275452
vn 0.906796 -0.224288 0.356953
vn -0.063246 0.288200 0.955479
vn -0.073021 0.390532 0.917689
vn -0.413903 0.268747 0.869747
vn -0.422289 0.251196 0.870961
vn -0.099622 0.931061 0.351000
vn 0.000243 0.891672 0.452682
vn -0.027349 0.858151 0.512668
vn -0.118746 0.903555 0.411688
vn 0.536781 0.106783 -0.836937
vn 0.754925 0.055047 -0.653497
vn 0.760660 0.086921 -0.643305
vn 0.543579 0.069671 -0.836461
vn 0.543579 0.069671 -0.836461
vn 0.760660 0.086921 -0.643305
vn 0.788953 0.052055 -0.612245
vn 0.586614 -0.044629 -0.808636
vn 0.907489 -0.222705 0.356183
vn 0.906796 -0.224288 0.356953
vn 0.996511 0.067135 0.049585
vn 0.977533 -0.005757 0.210703
vn 0.000737 -0.411515 0.911403
vn -0.203490 -0.438363 0.875460
vn -0.282299 -0.545112 0.789405
vn 0.028532 -0.501287 0.864811
vn -0.534210 0.754865 -0.380523
vn -0.902278 0.189982 -0.387041
vn -0.885666 0.256826 -0.386829
vn -0.521983 0.778358 -0.348844
vn -0.116290 0.992862 0.026477
vn -0.013708 0.984746 -0.173456
vn 0.007647 0.999384 0.034238
vn -0.097722 0.993116 0.064591
vn 0.981535 0.005241 -0.191209
vn 0.994680 0.086098 -0.056558
vn 0.978588 0.088185 -0.185981
vn 0.985882 0.031019 -0.164543
vn -0.086951 -0.683441 -0.724809
vn -0.196091 -0.737709 -0.646014
vn -0.188494 -0.768019 -0.612060
vn -0.070427 -0.675056 -0.734397
vn 0.225567 -0.686130 0.691625
vn 0.195336 -0.657369 0.727812
vn 0.039112 -0.584319 0.810581
vn 0.098672 -0.710169 0.697082
vn 0.972129 0.177175 0.153541
vn 0.978341 0.101205 0.180575
vn 0.994680 0.086098 -0.056558
vn 0.981535 0.005241 -0.191209
vn -0.448662 -0.190223 0.873223
vn -0.817229 -0.220633 0.532407
vn -0.282299 -0.545112 0.789405
vn -0.203490 -0.438363 0.875460
vn -0.052969 0.573572 0.817441
vn -0.041740 0.764192 0.643637
vn -0.493126 0.523318 0.694957
vn -0.437225 0.332204 0.835748
vn -0.035280 -0.986322 -0.161009
vn -0.042146 -0.932375 -0.359027
vn 0.416286 -0.801723 -0.428890
vn 0.413485 -0.874470 -0.253640
vn -0.026235 -0.997615 -0.063842
vn -0.035280 -0.986322 -0.161009
vn 0.413485 -0.874470 -0.253640
vn 0.415089 -0.908974 -0.038307
vn -0.068809 -0.847044 -0.527051
vn 0.037824 -0.955574 -0.292314
vn -0.301244 -0.949518 -0.087567
vn -0.458684 -0.884069 -0.089621
vn -0.104219 -0.607269 0.787631
vn -0.119707 -0.518364 0.846740
vn -0.145705 -0.653366 0.742888
vn -0.164534 -0.711399 0.683257
vn -0.437225 0.332204 0.835748
vn -0.894032 0.205387 0.398151
vn -0.820486 0.313364 0.478127
vn -0.413903 0.268747 0.869747
vn -0.104149 0.510804 -0.853365
vn -0.527879 0.462155 -0.712571
vn -0.538222 0.511357 -0.669948
vn -0.124235 0.631657 -0.765229
vn -0.074147 -0.766649 0.637771
vn -0.104219 -0.607269 0.787631
vn -0.164534 -0.711399 0.683257
vn -0.178611 -0.800839 0.571624
vn -0.086951 -0.683441 -0.724809
vn -0.054182 -0.843498 -0.534393
vn -0.186500 -0.837343 -0.513883
vn -0.196091 -0.737709 -0.646014
vn 0.766517 -0.522637 0.373232
vn 0.746737 -0.468039 0.472570
vn 0.431472 -0.733687 0.524915
vn 0.441170 -0.804921 0.396827
vn 0.736273 0.063673 -0.673682
vn 0.691732 0.280147 -0.665601
vn 0.926348 0.188019 -0.326386
vn 0.939779 0.027719 -0.340656
vn 0.223349 -0.804378 -0.550537
vn 0.242050 -0.851464 -0.465211
vn 0.167511 -0.844543 -0.508614
vn 0.107788 -0.792868 -0.599785
vn 0.150814 -0.987203 -0.051821
vn 0.286217 -0.954751 -0.080808
vn 0.280188 -0.937796 -0.205020
vn 0.147934 -0.975034 -0.165602
vn -0.126099 0.831431 -0.541129
vn -0.124235 0.631657 -0.765229
vn -0.538222 0.511357 -0.669948
vn -0.540621 0.630255 -0.557232
vn -0.112134 0.619197 0.777188
vn -0.126869 0.797472 0.589867
vn -0.041740 0.764192 0.643637
vn -0.052969 0.573572 0.817441
vn 0.225567 -0.686130 0.691625
vn 0.255412 -0.797968 0.545905
vn 0.160731 -0.848500 0.504195
vn 0.129039 -0.787502 0.602652
vn 0.620124 -0.156482 -0.768739
vn 0.824174 -0.017344 -0.566072
vn 0.821125 -0.010064 -0.570660
vn 0.617039 -0.164014 -0.769651
vn 0.296894 -0.411356 -0.861766
vn 0.314324 -0.374353 -0.872388
vn 0.620124 -0.156482 -0.768739
vn 0.617039 -0.164014 -0.769651
vn 0.204305 -0.893713 -0.399420
vn -0.068809 -0.847044 -0.527051
vn -0.163463 -0.793099 -0.586748
vn 0.167511 -0.844543 -0.508614
vn 0.484931 0.162396 -0.859342
vn 0.536781 0.106783 -0.836937
vn 0.203019 0.026647 -0.978812
vn 0.119521 0.228138 -0.966265
vn -0.558814 0.782714 0.274018
vn -0.959412 0.241269 0.146005
vn -0.947205 0.196924 0.253029
vn -0.519351 0.726810 0.449468
vn 0.147934 -0.975034 -0.165602
vn 0.280188 -0.937796 -0.205020
vn 0.259491 -0.893427 -0.366678
vn 0.139477 -0.949185 -0.282124
vn -0.126640 -0.374148 0.918681
vn -0.200849 -0.134621 0.970328
vn -0.263019 -0.086115 0.960940
vn -0.186273 -0.324171 0.927478
vn 0.366611 -0.579496 0.727860
vn -0.104219 -0.607269 0.787631
vn -0.074147 -0.766649 0.637771
vn 0.418399 -0.677372 0.605070
vn 0.542827 -0.102961 0.833509
vn 0.550828 -0.144890 0.821946
vn 0.854773 -0.059367 0.515596
vn 0.809866 0.057385 0.583801
vn -0.125355 -0.357542 0.925446
vn -0.126640 -0.374148 0.918681
vn -0.186273 -0.324171 0.927478
vn -0.153019 -0.432255 0.888674
vn -0.463338 0.762719 0.451195
vn -0.480511 0.819588 0.312065
vn -0.567909 0.781225 0.259167
vn -0.540640 0.770303 0.338145
vn 0.584231 0.527521 0.616762
vn 0.472740 0.713756 0.516788
vn 0.166255 0.657960 0.734471
vn 0.195209 0.612533 0.765961
vn -0.321381 0.014107 0.946845
vn -0.530538 0.065917 0.845094
vn -0.448662 -0.190223 0.873223
vn -0.123300 -0.268212 0.955437
vn -0.413044 0.678017 0.608019
vn -0.463338 0.762719 0.451195
vn -0.540640 0.770303 0.338145
vn -0.517876 0.753370 0.405262
vn 0.124702 -0.904403 -0.408050
vn 0.139477 -0.949185 -0.282124
vn 0.259491 -0.893427 -0.366678
vn 0.242050 -0.851464 -0.465211
vn -0.540621 0.630255 -0.557232
vn -0.886416 0.097316 -0.452544
vn -0.902278 0.189982 -0.387041
vn -0.534210 0.754865 -0.380523
vn -0.585275 0.810751 0.011691
vn -0.959972 0.278928 0.025569
vn -0.959412 0.241269 0.146005
vn -0.558814 0.782714 0.274018
vn -0.038506 -0.553318 -0.832079
vn -0.346535 -0.514174 -0.784563
vn -0.356916 -0.482231 -0.800040
vn -0.095804 -0.536683 -0.838328
vn 0.706012 -0.382378 0.596099
vn 0.918347 -0.237856 0.316329
vn 0.900247 -0.149593 0.408873
vn 0.615059 -0.231929 0.753600
vn -0.885666 0.256826 -0.386829
vn -0.972926 -0.191383 -0.129564
vn -0.985306 -0.119740 -0.121798
vn -0.905745 0.309323 -0.289734
vn -0.052969 0.573572 0.817441
vn -0.437225 0.332204 0.835748
vn -0.413903 0.268747 0.869747
vn -0.073021 0.390532 0.917689
vn -0.280560 0.359175 -0.890101
vn -0.259347 0.292227 -0.920512
vn -0.374215 0.259645 -0.890251
vn -0.403934 0.353473 -0.843739
vn -0.527879 0.462155 -0.712571
vn -0.877763 0.333792 -0.343678
vn -0.897909 0.144289 -0.415861
vn -0.538222 0.511357 -0.669948
vn -0.437489 0.773743 -0.458176
vn -0.113973 0.796567 -0.593710
vn -0.041206 0.634923 -0.771476
vn -0.369593 0.606103 -0.704301
vn -0.038514 0.285286 -0.957668
vn -0.410571 0.257576 -0.874692
vn -0.468470 0.367385 -0.803470
vn -0.067520 0.382679 -0.921411
vn -0.013708 0.984746 -0.173456
vn -0.566780 0.793254 -0.222506
vn -0.585275 0.810751 0.011691
vn 0.007647 0.999384 0.034238
vn -0.041206 0.634923 -0.771476
vn -0.113973 0.796567 -0.593710
vn 0.213158 0.793020 -0.570687
vn 0.269567 0.645786 -0.714349
vn 0.269567 0.645786 -0.714349
vn 0.213158 0.793020 -0.570687
vn 0.566014 0.635444 -0.525203
vn 0.607492 0.574526 -0.548519
vn 0.477473 0.111323 0.871566
vn 0.542827 -0.102961 0.833509
vn 0.809866 0.057385 0.583801
vn 0.745240 0.188441 0.639616
vn -0.039301 -0.904232 -0.425229
vn -0.054182 -0.843498 -0.534393
vn 0.407068 -0.756347 -0.512089
vn 0.416061 -0.784653 -0.459578
vn -0.045995 0.606541 0.793720
vn 0.014413 0.523839 0.851696
vn 0.229343 0.583348 0.779171
vn 0.260054 0.604044 0.753328
vn -0.422289 0.251196 0.870961
vn -0.715089 0.204922 0.668322
vn -0.530538 0.065917 0.845094
vn -0.321381 0.014107 0.946845
vn 0.178923 -0.940710 0.288187
vn 0.279627 -0.932081 0.230290
vn 0.283331 -0.958813 -0.020048
vn 0.165922 -0.983883 0.066670
vn 0.384118 0.339740 -0.858505
vn 0.484931 0.162396 -0.859342
vn 0.119521 0.228138 -0.966265
vn 0.051443 0.340931 -0.938680
vn -0.087024 0.381985 0.920062
vn -0.112134 0.619197 0.777188
vn -0.052969 0.573572 0.817441
vn -0.073021 0.390532 0.917689
vn -0.150934 -0.168687 -0.974045
vn 0.234178 -0.075129 -0.969287
vn 0.282643 -0.212487 -0.935394
vn -0.119504 -0.261982 -0.957645
vn -0.119707 -0.518364 0.846740
vn 0.283952 -0.443614 0.850046
vn 0.215414 -0.299605 0.929426
vn -0.122786 -0.429713 0.894578
vn -0.296608 0.459774 0.837037
vn 0.013887 0.579492 0.814860
vn 0.014413 0.523839 0.851696
vn -0.329768 0.530604 0.780841
vn 0.103481 -0.723311 0.682724
vn 0.085333 -0.611386 0.786718
vn 0.104641 -0.545382 0.831630
vn 0.155481 -0.631342 0.759758
vn 0.300740 0.526340 -0.795312
vn 0.269567 0.645786 -0.714349
vn 0.607492 0.574526 -0.548519
vn 0.624970 0.509519 -0.591441
vn 0.098733 0.982284 0.159280
vn 0.122694 0.972150 0.199678
vn 0.488242 0.835904 0.250769
vn 0.475773 0.860128 0.183902
vn -0.081346 0.181777 -0.979969
vn -0.041684 0.011980 -0.999059
vn 0.001539 0.133897 -0.990994
vn -0.038514 0.285286 -0.957668
vn 0.255412 -0.797968 0.545905
vn 0.279627 -0.932081 0.230290
vn 0.178923 -0.940710 0.288187
vn 0.160731 -0.848500 0.504195
vn 0.165922 -0.983883 0.066670
vn 0.283331 -0.958813 -0.020048
vn 0.286217 -0.954751 -0.080808
vn 0.150814 -0.987203 -0.051821
vn 0.027678 -0.686861 -0.726262
vn -0.272434 -0.687052 -0.673601
vn -0.284503 -0.613961 -0.736281
vn -0.027379 -0.562809 -0.826134
vn 0.615059 -0.231929 0.753600
vn 0.900247 -0.149593 0.408873
vn 0.854773 -0.059367 0.515596
vn 0.550828 -0.144890 0.821946
vn 0.106038 -0.828341 -0.550098
vn 0.223349 -0.804378 -0.550537
vn 0.186851 -0.685239 -0.703942
vn 0.084196 -0.734371 -0.673506
vn -0.005099 -0.287019 -0.957911
vn -0.009744 -0.478309 -0.878138
vn 0.155162 -0.550593 -0.820227
vn 0.094982 -0.281115 -0.954962
vn -0.052417 -0.856493 0.513491
vn 0.431472 -0.733687 0.524915
vn 0.418399 -0.677372 0.605070
vn -0.074147 -0.766649 0.637771
vn 0.809866 0.057385 0.583801
vn 0.984243 0.069324 0.162666
vn 0.952342 0.127891 0.276927
vn 0.745240 0.188441 0.639616
vn -0.484156 0.871608 -0.076761
vn -0.476412 0.878982 0.020535
vn -0.163222 0.986266 0.025253
vn -0.167378 0.985091 -0.039751
vn -0.486114 0.807007 -0.335310
vn -0.484156 0.871608 -0.076761
vn -0.167378 0.985091 -0.039751
vn -0.151055 0.945787 -0.287522
vn -0.375339 0.089922 -0.922516
vn -0.576674 -0.021041 -0.816703
vn -0.679583 0.140694 -0.719980
vn -0.410571 0.257576 -0.874692
vn -0.897909 0.144289 -0.415861
vn -0.877763 0.333792 -0.343678
vn -0.975919 0.213056 -0.046784
vn -0.990022 -0.124004 -0.066930
vn 0.784827 -0.540021 -0.304015
vn 0.813479 -0.580394 -0.037355
vn 0.415089 -0.908974 -0.038307
vn 0.413485 -0.874470 -0.253640
vn 0.084196 -0.734371 -0.673506
vn 0.186851 -0.685239 -0.703942
vn 0.148611 -0.525992 -0.837405
vn 0.055842 -0.664704 -0.745017
vn 0.475773 0.860128 0.183902
vn 0.907977 0.406186 -0.102910
vn 0.788454 0.614087 0.035192
vn 0.472137 0.876617 0.092890
vn 0.813479 -0.580394 -0.037355
vn 0.968011 -0.234816 -0.088408
vn 0.963983 -0.257664 0.065918
vn 0.784567 -0.561465 0.263080
vn -0.007324 0.050898 0.998677
vn -0.321381 0.014107 0.946845
vn -0.123300 -0.268212 0.955437
vn 0.044096 -0.291759 0.955475
vn 0.155481 -0.631342 0.759758
vn 0.018804 -0.541213 0.840675
vn 0.039112 -0.584319 0.810581
vn 0.195336 -0.657369 0.727812
vn -0.036591 -0.922720 0.383730
vn 0.441170 -0.804921 0.396827
vn 0.431472 -0.733687 0.524915
vn -0.052417 -0.856493 0.513491
vn -0.369593 0.606103 -0.704301
vn -0.041206 0.634923 -0.771476
vn 0.019474 0.434893 -0.900272
vn -0.280560 0.359175 -0.890101
vn -0.458684 -0.884069 -0.089621
vn -0.301244 -0.949518 -0.087567
vn 0.031693 -0.985395 0.167310
vn -0.070890 -0.934971 0.347568
vn -0.191625 -0.036311 -0.980796
vn 0.203019 0.026647 -0.978812
vn 0.234178 -0.075129 -0.969287
vn -0.150934 -0.168687 -0.974045
vn -0.200849 -0.134621 0.970328
vn 0.153695 -0.043397 0.987165
vn 0.034883 0.347859 0.936898
vn -0.269022 0.199286 0.942291
vn 0.918347 -0.237856 0.316329
vn 0.992421 0.014334 0.122042
vn 0.987711 -0.006254 0.156168
vn 0.900247 -0.149593 0.408873
vn 0.754925 0.055047 -0.653497
vn 0.736273 0.063673 -0.673682
vn 0.939779 0.027719 -0.340656
vn 0.935953 -0.044881 -0.349254
vn 0.055842 -0.664704 -0.745017
vn 0.148611 -0.525992 -0.837405
vn 0.152262 -0.533742 -0.831826
vn 0.010152 -0.590069 -0.807289
vn 0.000243 0.891672 0.452682
vn -0.519351 0.726810 0.449468
vn -0.504014 0.654966 0.563018
vn -0.027349 0.858151 0.512668
vn 0.955041 -0.227770 -0.189784
vn 0.953110 -0.256662 -0.160330
vn 0.987256 -0.029492 -0.156383
vn 0.982838 -0.003448 -0.184440
vn -0.113973 0.796567 -0.593710
vn -0.136045 0.858408 -0.494598
vn 0.170043 0.881180 -0.441144
vn 0.213158 0.793020 -0.570687
vn 0.010152 -0.590069 -0.807289
vn 0.152262 -0.533742 -0.831826
vn 0.155162 -0.550593 -0.820227
vn -0.009744 -0.478309 -0.878138
vn 0.784567 -0.561465 0.263080
vn 0.963983 -0.257664 0.065918
vn 0.951507 -0.264101 0.157752
vn 0.766517 -0.522637 0.373232
vn -0.026235 -0.997615 -0.063842
vn 0.415089 -0.908974 -0.038307
vn 0.434242 -0.878490 0.199221
vn -0.022372 -0.994927 0.098076
vn 0.103481 -0.723311 0.682724
vn 0.155481 -0.631342 0.759758
vn 0.195336 -0.657369 0.727812
vn 0.111235 -0.766726 0.632264
vn 0.813479 -0.580394 -0.037355
vn 0.784567 -0.561465 0.263080
vn 0.434242 -0.878490 0.199221
vn 0.415089 -0.908974 -0.038307
vn 0.704223 0.270927 0.656254
vn 0.584231 0.527521 0.616762
vn 0.195209 0.612533 0.765961
vn 0.344035 0.393696 0.852434
vn 0.084758 0.994975 -0.053294
vn 0.125780 0.956920 -0.261693
vn -0.151055 0.945787 -0.287522
vn -0.167378 0.985091 -0.039751
vn -0.886416 0.097316 -0.452544
vn -0.897909 0.144289 -0.415861
vn -0.990022 -0.124004 -0.066930
vn -0.956697 -0.282823 -0.068864
vn 0.111235 -0.766726 0.632264
vn 0.195336 -0.657369 0.727812
vn 0.225567 -0.686130 0.691625
vn 0.129039 -0.787502 0.602652
vn -0.005099 -0.287019 -0.957911
vn 0.094982 -0.281115 -0.954962
vn 0.001539 0.133897 -0.990994
vn -0.041684 0.011980 -0.999059
vn 0.001539 0.133897 -0.990994
vn 0.094982 -0.281115 -0.954962
vn -0.256449 -0.273005 -0.927202
vn -0.375339 0.089922 -0.922516
vn 0.148611 -0.525992 -0.837405
vn -0.027379 -0.562809 -0.826134
vn -0.038506 -0.553318 -0.832079
vn 0.152262 -0.533742 -0.831826
vn -0.136045 0.858408 -0.494598
vn -0.151055 0.945787 -0.287522
vn 0.125780 0.956920 -0.261693
vn 0.170043 0.881180 -0.441144
vn 0.259491 -0.893427 -0.366678
vn 0.280188 -0.937796 -0.205020
vn 0.231942 -0.947318 -0.220887
vn 0.204305 -0.893713 -0.399420
vn 0.060705 -0.469543 0.880820
vn 0.067649 -0.455986 0.887412
vn 0.104641 -0.545382 0.831630
vn 0.085333 -0.611386 0.786718
vn -0.109991 0.314366 -0.942908
vn -0.081346 0.181777 -0.979969
vn -0.038514 0.285286 -0.957668
vn -0.067520 0.382679 -0.921411
vn 0.586614 -0.044629 -0.808636
vn 0.788953 0.052055 -0.612245
vn 0.824174 -0.017344 -0.566072
vn 0.620124 -0.156482 -0.768739
vn -0.269022 0.199286 0.942291
vn 0.034883 0.347859 0.936898
vn 0.002062 0.541615 0.840624
vn -0.291408 0.356546 0.887669
vn -0.243626 0.187410 -0.951590
vn -0.259347 0.292227 -0.920512
vn 0.051443 0.340931 -0.938680
vn 0.119521 0.228138 -0.966265
vn -0.191625 -0.036311 -0.980796
vn -0.243626 0.187410 -0.951590
vn 0.119521 0.228138 -0.966265
vn 0.203019 0.026647 -0.978812
vn 0.044096 -0.291759 0.955475
vn -0.123300 -0.268212 0.955437
vn 0.000737 -0.411515 0.911403
vn 0.067649 -0.455986 0.887412
vn -0.022372 -0.994927 0.098076
vn 0.434242 -0.878490 0.199221
vn 0.441170 -0.804921 0.396827
vn -0.036591 -0.922720 0.383730
vn 0.955041 -0.227770 -0.189784
vn 0.784827 -0.540021 -0.304015
vn 0.773384 -0.537600 -0.335952
vn 0.953110 -0.256662 -0.160330
vn 0.951701 -0.279314 -0.127476
vn 0.988043 -0.006062 -0.154062
vn 0.987256 -0.029492 -0.156383
vn 0.953110 -0.256662 -0.160330
vn 0.536781 0.106783 -0.836937
vn 0.543579 0.069671 -0.836461
vn 0.234178 -0.075129 -0.969287
vn 0.203019 0.026647 -0.978812
vn -0.480511 0.819588 0.312065
vn -0.158793 0.961361 0.224876
vn -0.151451 0.984160 0.092154
vn -0.482899 0.869375 0.104864
vn 0.932332 -0.183520 -0.311573
vn 0.748504 -0.505463 -0.429242
vn 0.673699 -0.295703 -0.677267
vn 0.840000 -0.035398 -0.541430
vn 0.078544 0.993926 0.077084
vn 0.098733 0.982284 0.159280
vn 0.475773 0.860128 0.183902
vn 0.472137 0.876617 0.092890
vn 0.030885 -0.244416 0.969178
vn -0.009056 0.042579 0.999052
vn -0.007324 0.050898 0.998677
vn 0.044096 -0.291759 0.955475
vn -0.854088 0.519047 -0.033520
vn -0.878343 0.435851 -0.196336
vn -0.979442 0.091862 -0.179599
vn -0.989422 0.139359 -0.040290
vn -0.329768 0.530604 0.780841
vn 0.014413 0.523839 0.851696
vn -0.045995 0.606541 0.793720
vn -0.413044 0.678017 0.608019
vn 0.060705 -0.469543 0.880820
vn 0.030885 -0.244416 0.969178
vn 0.044096 -0.291759 0.955475
vn 0.067649 -0.455986 0.887412
vn 0.345236 -0.565692 -0.748869
vn 0.407068 -0.756347 -0.512089
vn -0.054182 -0.843498 -0.534393
vn -0.086951 -0.683441 -0.724809
vn 0.231942 -0.947318 -0.220887
vn 0.037824 -0.955574 -0.292314
vn -0.068809 -0.847044 -0.527051
vn 0.204305 -0.893713 -0.399420
vn -0.956697 -0.282823 -0.068864
vn -0.965222 -0.247063 -0.085480
vn -0.902278 0.189982 -0.387041
vn -0.886416 0.097316 -0.452544
vn 0.296894 -0.411356 -0.861766
vn 0.345236 -0.565692 -0.748869
vn -0.086951 -0.683441 -0.724809
vn -0.070427 -0.675056 -0.734397
vn 0.219498 -0.292854 0.930622
vn 0.153695 -0.043397 0.987165
vn -0.200849 -0.134621 0.970328
vn -0.126640 -0.374148 0.918681
vn 0.229343 0.583348 0.779171
vn 0.166255 0.657960 0.734471
vn 0.472740 0.713756 0.516788
vn 0.494051 0.702647 0.512055
vn 0.824174 -0.017344 -0.566072
vn 0.952963 0.027386 -0.301847
vn 0.949410 0.053676 -0.309419
vn 0.821125 -0.010064 -0.570660
vn 0.197506 -0.247036 0.948665
vn 0.219498 -0.292854 0.930622
vn -0.126640 -0.374148 0.918681
vn -0.125355 -0.357542 0.925446
vn -0.136878 0.845076 0.516828
vn -0.158793 0.961361 0.224876
vn -0.480511 0.819588 0.312065
vn -0.463338 0.762719 0.451195
vn 0.260054 0.604044 0.753328
vn 0.229343 0.583348 0.779171
vn 0.494051 0.702647 0.512055
vn 0.540725 0.668849 0.510154
vn 0.201673 0.856970 0.474268
vn 0.122694 0.972150 0.199678
vn -0.158793 0.961361 0.224876
vn -0.136878 0.845076 0.516828
vn -0.045995 0.606541 0.793720
vn -0.136878 0.845076 0.516828
vn -0.463338 0.762719 0.451195
vn -0.413044 0.678017 0.608019
vn 0.344035 0.393696 0.852434
vn 0.195209 0.612533 0.765961
vn 0.002062 0.541615 0.840624
vn 0.034883 0.347859 0.936898
vn 0.543579 0.069671 -0.836461
vn 0.586614 -0.044629 -0.808636
vn 0.282643 -0.212487 -0.935394
vn 0.234178 -0.075129 -0.969287
vn 0.765064 -0.569636 -0.300318
vn 0.748504 -0.505463 -0.429242
vn 0.932332 -0.183520 -0.311573
vn 0.951701 -0.279314 -0.127476
vn 0.746737 -0.468039 0.472570
vn 0.745937 -0.447620 0.493167
vn 0.418399 -0.677372 0.605070
vn 0.431472 -0.733687 0.524915
vn 0.155162 -0.550593 -0.820227
vn -0.095804 -0.536683 -0.838328
vn -0.256449 -0.273005 -0.927202
vn 0.094982 -0.281115 -0.954962
vn 0.773384 -0.537600 -0.335952
vn 0.765064 -0.569636 -0.300318
vn 0.951701 -0.279314 -0.127476
vn 0.953110 -0.256662 -0.160330
vn 0.286217 -0.954751 -0.080808
vn 0.283331 -0.958813 -0.020048
vn 0.213235 -0.976043 0.043250
vn 0.237382 -0.969775 -0.056445
vn 0.477473 0.111323 0.871566
vn 0.344035 0.393696 0.852434
vn 0.034883 0.347859 0.936898
vn 0.153695 -0.043397 0.987165
vn -0.092108 0.942668 -0.320771
vn -0.521983 0.778358 -0.348844
vn -0.536244 0.771763 -0.341796
vn -0.052305 0.951653 -0.302688
vn -0.885666 0.256826 -0.386829
vn -0.902278 0.189982 -0.387041
vn -0.965222 -0.247063 -0.085480
vn -0.972926 -0.191383 -0.129564
vn 0.488242 0.835904 0.250769
vn 0.122694 0.972150 0.199678
vn 0.201673 0.856970 0.474268
vn 0.531059 0.752321 0.389858
vn -0.050787 0.205823 0.977271
vn -0.063246 0.288200 0.955479
vn -0.007324 0.050898 0.998677
vn -0.009056 0.042579 0.999052
vn -0.885843 0.397772 0.238870
vn -0.854088 0.519047 -0.033520
vn -0.989422 0.139359 -0.040290
vn -0.988473 0.034899 0.147321
vn 0.182723 -0.962048 0.202675
vn -0.070890 -0.934971 0.347568
vn 0.031693 -0.985395 0.167310
vn 0.213235 -0.976043 0.043250
vn -0.413903 0.268747 0.869747
vn -0.820486 0.313364 0.478127
vn -0.715089 0.204922 0.668322
vn -0.422289 0.251196 0.870961
vn -0.493126 0.523318 0.694957
vn -0.919365 0.107830 0.378339
vn -0.894032 0.205387 0.398151
vn -0.437225 0.332204 0.835748
vn 0.279627 -0.932081 0.230290
vn 0.182723 -0.962048 0.202675
vn 0.213235 -0.976043 0.043250
vn 0.283331 -0.958813 -0.020048
vn 0.314324 -0.374353 -0.872388
vn 0.296894 -0.411356 -0.861766
vn -0.070427 -0.675056 -0.734397
vn -0.068676 -0.548214 -0.833514
vn 0.013887 0.579492 0.814860
vn 0.002062 0.541615 0.840624
vn 0.195209 0.612533 0.765961
vn 0.166255 0.657960 0.734471
vn 0.018804 -0.541213 0.840675
vn -0.277800 -0.616274 0.736908
vn -0.319937 -0.633661 0.704354
vn 0.039112 -0.584319 0.810581
vn 0.282643 -0.212487 -0.935394
vn 0.314324 -0.374353 -0.872388
vn -0.068676 -0.548214 -0.833514
vn -0.119504 -0.261982 -0.957645
vn -0.152717 0.582697 -0.798211
vn -0.129760 0.437117 -0.889995
vn -0.104149 0.510804 -0.853365
vn -0.124235 0.631657 -0.765229
vn 0.167511 -0.844543 -0.508614
vn -0.163463 -0.793099 -0.586748
vn -0.250049 -0.710727 -0.657528
vn 0.107788 -0.792868 -0.599785
vn -0.482899 0.869375 0.104864
vn -0.151451 0.984160 0.092154
vn -0.163222 0.986266 0.025253
vn -0.476412 0.878982 0.020535
vn -0.184060 0.837009 -0.515303
vn -0.152717 0.582697 -0.798211
vn -0.124235 0.631657 -0.765229
vn -0.126099 0.831431 -0.541129
vn 0.932332 -0.183520 -0.311573
vn 0.979003 0.012519 -0.203463
vn 0.988043 -0.006062 -0.154062
vn 0.951701 -0.279314 -0.127476
vn -0.104219 -0.607269 0.787631
vn 0.366611 -0.579496 0.727860
vn 0.283952 -0.443614 0.850046
vn -0.119707 -0.518364 0.846740
vn -0.346535 -0.514174 -0.784563
vn -0.823877 -0.130979 -0.551426
vn -0.534614 -0.270271 -0.800713
vn -0.356916 -0.482231 -0.800040
vn -0.256449 -0.273005 -0.927202
vn -0.534614 -0.270271 -0.800713
vn -0.576674 -0.021041 -0.816703
vn -0.375339 0.089922 -0.922516
s off
g Piernita
usemtl PiernitaSG1
f 55/1/1 406/2/2 407/3/3 69/4/4 82/5/5 396/6/6 113/7/7 168/8/8
f 69/4/9 75/9/10 323/10/11 74/11/12 82/5/13
f 367/12/14 206/13/15 130/14/16 329/15/17 72/16/18 372/17/19 160/18/20 264/19/21 278/20/22
f 405/21/23 273/22/24 120/23/25 119/24/26 267/25/27 272/26/28 126/27/29 154/28/30 211/29/31
f 211/29/32 154/28/33 333/30/34 206/13/35 367/12/36
f 363/31/37 282/32/38 284/33/39 159/34/40 335/35/41 261/36/42 68/37/43 331/38/44 289/39/45 67/40/46 403/41/47 149/42/48 323/10/49 75/9/50
f 294/43/51 40/44/52 369/45/53 248/46/54 268/47/55
f 358/48/56 40/49/57 294/50/58 265/51/59 245/52/60
f 341/53/61 143/54/62 299/55/63 268/56/64 248/57/65
f 147/58/66 150/59/67 215/60/68 245/52/69 265/61/70
f 34/62/71 293/63/72 287/64/73 274/65/74 123/66/75
f 271/67/76 251/68/77 49/69/78 150/59/79 147/58/80
f 101/70/81 140/71/82 109/72/83 303/73/84
f 87/74/85 210/75/86 175/76/87 315/77/88
f 374/78/89 188/79/90 189/80/91 389/81/92
f 186/82/93 281/83/94 114/84/95 166/85/96
f 332/86/97 289/39/98 331/38/99 389/87/100
f 63/88/101 179/89/102 199/90/103 327/91/104
f 390/92/105 67/40/106 289/39/107 332/86/108
f 316/93/109 270/94/110 200/95/111 400/96/112
f 391/97/113 191/98/114 368/99/115 357/100/116
f 342/101/117 1/102/118 405/103/119 407/3/120
f 1/104/121 397/105/122 273/22/123 405/106/124
f 178/107/125 63/88/126 327/91/127 198/108/128
f 104/109/129 300/110/130 163/111/131 303/73/132
f 357/100/133 368/99/134 192/112/135 392/113/136
f 391/114/137 149/42/138 403/41/139 111/115/140
f 111/115/141 403/41/142 67/40/143 390/92/144
f 78/116/145 159/34/146 284/33/147 386/117/148
f 155/118/149 393/119/150 396/120/151 82/121/152
f 357/122/153 392/123/154 74/11/155 323/10/156
f 387/124/157 187/125/158 202/126/159 110/127/160
f 382/128/161 182/129/162 203/130/163 80/131/164
f 146/132/165 8/133/166 9/134/167 355/135/168
f 386/117/169 284/33/170 282/32/171 213/136/172
f 105/137/173 63/88/174 178/107/175 318/138/176
f 395/139/177 406/2/178 55/1/179 217/140/180
f 35/141/181 339/142/182 326/143/183 239/144/184
f 110/127/185 202/126/186 188/79/187 374/78/188
f 259/145/189 28/146/190 31/147/191 141/148/192
f 387/149/193 335/35/194 159/34/195 78/116/196
f 217/140/197 55/1/198 168/8/199 394/150/200
f 325/151/201 165/152/202 185/153/203 144/154/204
f 36/155/205 275/156/206 52/157/207 38/158/208
f 22/159/209 341/160/210 248/161/211 228/162/212
f 172/163/213 148/164/214 351/165/215 192/112/216
f 1/166/217 196/167/218 197/168/219 397/169/220
f 399/170/221 199/171/222 270/94/223 316/93/224
f 47/172/225 23/173/226 24/174/227 21/175/228
f 13/176/229 54/177/230 131/178/231 352/179/232
f 51/180/233 13/176/234 352/179/235 96/181/236
f 382/128/237 80/131/238 72/16/239 329/15/240
f 6/182/241 109/72/242 140/71/243 288/183/244
f 288/183/245 140/71/246 90/184/247 3/185/248
f 362/186/249 373/187/250 258/188/251 238/189/252
f 388/190/253 381/191/254 206/13/255 333/30/256
f 33/192/257 46/193/258 339/142/259 35/141/260
f 342/101/261 407/3/262 406/2/263 395/139/264
f 38/158/265 52/157/266 280/194/267 240/195/268
f 283/196/269 218/197/270 310/198/271 103/199/272
f 38/158/273 240/195/274 362/200/275 347/201/276
f 350/202/277 283/203/278 103/204/279 309/205/280
f 56/206/281 66/207/282 209/208/283 224/209/284
f 322/210/285 321/211/286 304/212/287 104/109/288
f 99/213/289 181/214/290 161/215/291 380/216/292
f 109/72/293 322/210/294 104/109/295 303/73/296
f 371/217/297 8/133/298 223/218/299 16/219/300
f 36/155/301 38/158/302 347/201/303 344/220/304
f 91/221/305 311/222/306 171/223/307 308/224/308
f 310/198/309 91/221/310 308/224/311 170/225/312
f 398/226/313 204/227/314 267/25/315 119/24/316
f 25/228/317 57/229/318 364/230/319 129/231/320
f 54/177/321 25/232/322 129/233/323 131/178/324
f 369/234/325 40/235/326 337/236/327 246/237/328
f 400/96/329 388/190/330 333/30/331 154/28/332
f 37/238/333 12/239/334 276/240/335 71/241/336
f 9/134/337 37/238/338 71/241/339 321/211/340
f 70/242/341 169/243/342 189/80/343 188/79/344
f 45/244/345 48/245/346 153/246/347 157/247/348
f 153/246/349 317/248/350 65/249/351 157/247/352
f 183/250/353 203/251/354 348/252/355 163/111/356
f 243/253/357 337/236/358 40/235/359 358/254/360
f 46/193/361 33/192/362 84/255/363 77/256/364
f 30/257/365 46/193/366 77/256/367 324/258/368
f 334/259/369 136/260/370 85/261/371 242/262/372
f 277/263/373 144/264/374 185/265/375 385/266/376
f 15/267/377 365/268/378 296/269/379 295/270/380
f 295/271/381 296/272/382 276/240/383 12/239/384
f 118/273/385 337/274/386 243/275/387 152/276/388
f 201/277/389 382/128/390 329/15/391 130/14/392
f 275/156/393 36/155/394 345/278/395 100/279/396
f 33/192/397 275/156/398 100/279/399 84/255/400
f 298/280/401 183/281/402 163/282/403 300/283/404
f 262/284/405 60/285/406 360/286/407 219/287/408
f 360/286/409 301/288/410 336/289/411 219/287/412
f 219/287/413 336/289/414 320/290/415 364/230/416
f 57/229/417 262/284/418 219/287/419 364/230/420
f 122/291/421 18/292/422 343/293/423 366/294/424
f 343/293/425 307/295/426 291/296/427 366/294/428
f 366/294/429 291/296/430 306/297/431 365/268/432
f 15/267/433 122/291/434 366/294/435 365/268/436
f 394/298/437 133/299/438 76/300/439 194/301/440
f 51/180/441 96/181/442 290/302/443 142/303/444
f 142/303/445 290/302/446 153/246/447 48/245/448
f 401/304/449 134/305/450 256/306/451 205/307/452
f 246/308/453 337/309/454 118/310/455 297/311/456
f 344/220/457 39/312/458 375/313/459 292/314/460
f 36/155/461 344/220/462 292/314/463 345/278/464
f 241/315/465 138/316/466 118/273/467 152/317/468
f 346/318/469 21/175/470 135/319/471 137/320/472
f 18/292/473 346/318/474 137/320/475 343/293/476
f 374/321/477 389/87/478 331/38/479 68/322/480
f 377/323/481 263/324/482 315/77/483 121/325/484
f 81/326/485 5/327/486 222/328/487 79/329/488
f 375/330/489 377/323/490 121/325/491 314/331/492
f 371/332/493 16/333/494 225/334/495 59/335/496
f 207/336/497 3/185/498 90/184/499 158/337/500
f 90/184/501 302/338/502 379/339/503 158/337/504
f 158/337/505 379/339/506 301/288/507 360/286/508
f 60/285/509 207/336/510 158/337/511 360/286/512
f 253/340/513 251/341/514 293/63/515 134/305/516
f 21/175/517 24/174/518 350/202/519 135/319/520
f 27/342/521 44/343/522 88/344/523 359/345/524
f 381/191/525 201/277/526 130/14/527 206/13/528
f 352/179/529 131/178/530 319/346/531 105/137/532
f 17/347/533 230/348/534 22/159/535 353/349/536
f 96/181/537 352/179/538 105/137/539 318/138/540
f 195/350/541 128/351/542 254/352/543 175/76/544
f 32/353/545 212/354/546 139/355/547 39/312/548
f 44/343/549 235/356/550 361/357/551 88/344/552
f 140/71/553 101/70/554 302/338/555 90/184/556
f 238/189/557 258/188/558 205/307/559 107/358/560
f 124/359/561 263/324/562 42/360/563 266/361/564
f 143/362/565 19/363/566 252/364/567 123/365/568
f 237/366/569 257/367/570 28/146/571 326/368/572
f 157/247/573 124/359/574 266/361/575 45/244/576
f 283/203/577 350/202/578 24/174/579 43/369/580
f 244/370/581 297/311/582 118/310/583 138/371/584
f 94/372/585 19/373/586 250/374/587 230/348/588
f 218/375/589 283/203/590 43/369/591 27/376/592
f 322/210/593 109/72/594 6/182/595 355/135/596
f 321/211/597 322/210/598 355/135/599 9/134/600
f 338/377/601 218/197/602 27/342/603 359/345/604
f 326/368/605 28/146/606 259/145/607 239/378/608
f 184/379/609 298/380/610 300/110/611 164/381/612
f 324/258/613 338/377/614 359/345/615 30/257/616
f 286/382/617 147/58/618 265/51/619 294/50/620
f 214/383/621 180/384/622 200/95/623 270/94/624
f 179/385/625 214/383/626 270/94/627 199/171/628
f 226/386/629 246/387/630 297/388/631 209/208/632
f 354/389/633 189/80/634 169/243/635 116/390/636
f 385/266/637 363/31/638 278/20/639 277/263/640
f 277/263/641 278/20/642 264/19/643 384/391/644
f 83/392/645 398/226/646 119/24/647 120/23/648
f 258/188/649 62/393/650 401/304/651 205/307/652
f 251/394/653 271/67/654 287/64/655 293/63/656
f 58/395/657 334/259/658 242/262/659 222/328/660
f 223/396/661 243/397/662 358/398/663 16/333/664
f 77/256/665 84/255/666 312/399/667 106/400/668
f 93/401/669 285/402/670 255/403/671 235/404/672
f 324/258/673 77/256/674 106/400/675 311/222/676
f 2/405/677 221/406/678 370/407/679 146/132/680
f 132/408/681 53/409/682 229/410/683 64/411/684
f 365/268/685 306/297/686 102/412/687 296/269/688
f 296/272/689 102/413/690 305/414/691 276/240/692
f 11/415/693 226/386/694 209/208/695 66/207/696
f 345/278/697 313/416/698 376/417/699 100/279/700
f 100/279/701 376/417/702 312/399/703 84/255/704
f 227/418/705 247/419/706 220/420/707 89/421/708
f 23/173/709 47/172/710 208/422/711 233/423/712
f 164/424/713 325/151/714 144/154/715 184/425/716
f 29/426/717 339/142/718 46/193/719 30/257/720
f 30/257/721 359/345/722 88/344/723 29/426/724
f 50/427/725 353/349/726 22/159/727 228/162/728
f 299/428/729 143/362/730 123/429/731 274/65/732
f 4/430/733 178/107/734 198/108/735 127/431/736
f 177/432/737 4/430/738 127/431/739 197/168/740
f 225/334/741 245/433/742 215/434/743 86/435/744
f 399/170/745 316/93/746 126/27/747 272/26/748
f 394/150/749 168/8/750 113/7/751 133/436/752
f 133/437/753 113/438/754 396/120/755 393/119/756
f 148/164/757 173/439/758 193/440/759 351/165/760
f 208/441/761 251/341/762 253/340/763 233/442/764
f 135/319/765 73/443/766 7/444/767 137/320/768
f 137/320/769 7/444/770 307/295/771 343/293/772
f 141/148/773 31/147/774 356/445/775 260/446/776
f 377/447/777 375/313/778 39/312/779 139/355/780
f 208/422/781 64/411/782 49/448/783 251/449/784
f 263/450/785 377/447/786 139/355/787 42/451/788
f 192/112/789 368/99/790 125/452/791 172/163/792
f 220/453/793 150/59/794 49/69/795 249/454/796
f 299/428/797 286/382/798 294/50/799 268/455/800
f 73/443/801 309/205/802 169/243/803 70/242/804
f 266/361/805 92/456/806 41/457/807 45/244/808
f 75/9/809 367/12/810 278/20/811 363/31/812
f 87/74/813 315/77/814 263/324/815 124/359/816
f 115/458/817 191/98/818 391/97/819 111/459/820
f 190/460/821 115/458/822 111/459/823 390/461/824
f 65/249/825 87/74/826 124/359/827 157/247/828
f 256/306/829 134/305/830 293/63/831 34/62/832
f 373/187/833 402/462/834 62/393/835 258/188/836
f 391/114/837 357/122/838 323/10/839 149/42/840
f 29/426/841 88/344/842 361/357/843 237/463/844
f 239/378/845 259/145/846 141/148/847 280/464/848
f 151/465/849 369/466/850 246/467/851 226/468/852
f 91/221/853 310/198/854 218/197/855 338/377/856
f 222/328/857 242/262/858 85/261/859 79/329/860
f 20/469/861 41/457/862 234/470/863 232/471/864
f 311/222/865 91/221/866 338/377/867 324/258/868
f 260/446/869 356/445/870 402/462/871 373/187/872
f 209/208/873 297/388/874 244/472/875 224/209/876
f 404/473/877 86/435/878 227/418/879 14/474/880
f 32/353/881 238/475/882 107/476/883 212/354/884
f 194/301/885 76/300/886 108/477/887 174/478/888
f 97/479/889 181/480/890 381/191/891 388/190/892
f 200/95/893 97/479/894 388/190/895 400/96/896
f 41/457/897 92/456/898 145/481/899 234/470/900
f 344/220/901 347/201/902 32/353/903 39/312/904
f 187/125/905 387/124/906 78/482/907 61/483/908
f 61/483/909 78/482/910 386/484/911 186/82/912
f 316/93/913 400/96/914 154/28/915 126/27/916
f 230/348/917 250/374/918 341/160/919 22/159/920
f 361/485/921 216/486/922 257/367/923 237/366/924
f 33/192/925 35/141/926 52/157/927 275/156/928
f 69/4/929 211/29/930 367/12/931 75/9/932
f 98/487/933 71/241/934 276/240/935 305/414/936
f 11/488/937 328/489/938 151/465/939 226/468/940
f 407/3/941 405/103/942 211/29/943 69/4/944
f 19/490/945 143/491/946 341/492/947 250/493/948
f 26/494/949 212/495/950 107/496/951 236/497/952
f 101/70/953 303/73/954 163/111/955 348/252/956
f 302/338/957 101/70/958 348/252/959 162/498/960
f 241/315/961 85/499/962 136/260/963 138/316/964
f 95/500/965 319/346/966 131/178/967 129/233/968
f 236/497/969 256/501/970 34/502/971 145/481/972
f 23/173/973 233/423/974 93/503/975 10/504/976
f 320/290/977 95/505/978 129/231/979 364/230/980
f 98/487/981 304/212/982 321/211/983 71/241/984
f 181/480/985 97/479/986 117/506/987 161/507/988
f 110/508/989 374/509/990 68/510/991 261/36/992
f 8/133/993 146/132/994 370/407/995 223/218/996
f 3/185/997 5/327/998 81/326/999 288/183/1000
f 44/343/1001 10/511/1002 93/512/1003 235/356/1004
f 42/360/1005 139/513/1006 212/495/1007 26/494/1008
f 11/415/1009 66/207/1010 262/284/1011 57/229/1012
f 281/83/1013 213/514/1014 385/515/1015 185/153/1016
f 165/152/1017 114/84/1018 281/83/1019 185/153/1020
f 221/406/1021 241/516/1022 152/276/1023 370/407/1024
f 202/126/1025 187/125/1026 167/517/1027 231/518/1028
f 240/519/1029 260/446/1030 373/187/1031 362/186/1032
f 288/183/1033 81/326/1034 2/405/1035 6/182/1036
f 378/520/1037 317/248/1038 153/246/1039 290/302/1040
f 214/521/1041 95/500/1042 320/522/1043 180/523/1044
f 127/524/1045 198/525/1046 398/226/1047 83/392/1048
f 318/138/1049 378/520/1050 290/302/1051 96/181/1052
f 156/526/1053 313/416/1054 345/278/1055 292/314/1056
f 342/527/1057 395/528/1058 195/350/1059 279/529/1060
f 232/471/1061 252/530/1062 19/373/1063 94/372/1064
f 314/531/1065 156/526/1066 292/314/1067 375/313/1068
f 355/135/1069 6/182/1070 2/405/1071 146/132/1072
f 235/404/1073 255/403/1074 216/486/1075 361/485/1076
f 280/464/1077 141/148/1078 260/446/1079 240/519/1080
f 86/435/1081 215/434/1082 247/419/1083 227/418/1084
f 199/171/1085 399/170/1086 204/227/1087 327/532/1088
f 257/367/1089 356/445/1090 31/147/1091 28/146/1092
f 26/494/1093 236/497/1094 145/481/1095 92/456/1096
f 309/205/1097 73/443/1098 135/319/1099 350/202/1100
f 233/442/1101 253/340/1102 285/402/1103 93/401/1104
f 310/533/1105 170/534/1106 116/390/1107 103/204/1108
f 132/408/1109 64/411/1110 208/422/1111 47/172/1112
f 35/141/1113 239/144/1114 280/194/1115 52/157/1116
f 116/535/1117 170/225/1118 190/460/1119 354/536/1120
f 354/537/1121 190/538/1122 390/539/1123 332/540/1124
f 197/168/1125 127/431/1126 83/541/1127 397/169/1128
f 104/109/1129 304/212/1130 164/381/1131 300/110/1132
f 174/478/1133 254/352/1134 128/351/1135 194/301/1136
f 234/470/1137 123/542/1138 252/530/1139 232/471/1140
f 60/285/1141 56/206/1142 269/543/1143 207/336/1144
f 188/79/1145 202/126/1146 231/518/1147 70/242/1148
f 266/361/1149 42/360/1150 26/494/1151 92/456/1152
f 291/296/1153 340/544/1154 166/85/1155 306/297/1156
f 319/346/1157 179/89/1158 63/88/1159 105/137/1160
f 315/77/1161 175/76/1162 254/352/1163 121/325/1164
f 54/177/1165 13/176/1166 353/349/1167 50/427/1168
f 189/80/1169 354/389/1170 332/545/1171 389/81/1172
f 351/165/1173 193/440/1174 393/119/1175 155/118/1176
f 346/318/1177 18/292/1178 53/409/1179 132/408/1180
f 66/207/1181 56/206/1182 60/285/1183 262/284/1184
f 207/336/1185 269/543/1186 5/327/1187 3/185/1188
f 16/333/1189 358/398/1190 245/433/1191 225/334/1192
f 327/532/1193 204/227/1194 398/226/1195 198/525/1196
f 9/134/1197 8/133/1198 371/217/1199 37/238/1200
f 122/291/1201 15/267/1202 14/474/1203 330/546/1204
f 336/289/1205 117/547/1206 180/548/1207 320/290/1208
f 83/392/1209 120/23/1210 273/22/1211 397/105/1212
f 106/400/1213 312/399/1214 172/163/1215 125/452/1216
f 311/222/1217 106/400/1218 125/452/1219 171/223/1220
f 229/410/1221 249/549/1222 49/448/1223 64/411/1224
f 285/402/1225 253/340/1226 134/305/1227 401/304/1228
f 203/251/1229 182/550/1230 162/498/1231 348/252/1232
f 37/551/1233 371/332/1234 59/335/1235 12/552/1236
f 155/553/1237 82/5/1238 74/11/1239 392/123/1240
f 182/129/1241 382/128/1242 201/277/1243 99/554/1244
f 20/469/1245 232/471/1246 94/372/1247 112/555/1248
f 50/427/1249 228/162/1250 151/465/1251 328/489/1252
f 301/288/1253 161/215/1254 117/547/1255 336/289/1256
f 103/204/1257 116/390/1258 169/243/1259 309/205/1260
f 138/316/1261 136/260/1262 334/259/1263 244/472/1264
f 307/295/1265 167/517/1266 340/544/1267 291/296/1268
f 317/248/1269 177/432/1270 176/556/1271 65/249/1272
f 399/170/1273 272/26/1274 267/25/1275 204/227/1276
f 387/149/1277 110/508/1278 261/36/1279 335/35/1280
f 12/552/1281 59/335/1282 404/473/1283 295/270/1284
f 347/201/1285 362/200/1286 238/475/1287 32/353/1288
f 80/131/1289 383/557/1290 372/17/1291 72/16/1292
f 170/225/1293 308/224/1294 115/458/1295 190/460/1296
f 295/270/1297 404/473/1298 14/474/1299 15/267/1300
f 99/554/1301 201/277/1302 381/191/1303 181/480/1304
f 302/338/1305 162/498/1306 380/216/1307 379/339/1308
f 54/177/1309 50/427/1310 328/489/1311 25/232/1312
f 182/550/1313 99/213/1314 380/216/1315 162/498/1316
f 1/166/1317 342/527/1318 279/529/1319 196/167/1320
f 368/99/1321 191/98/1322 171/223/1323 125/452/1324
f 255/403/1325 285/402/1326 401/304/1327 62/393/1328
f 25/232/1329 328/489/1330 11/488/1331 57/558/1332
f 122/291/1333 330/546/1334 53/409/1335 18/292/1336
f 53/409/1337 330/546/1338 89/421/1339 229/410/1340
f 59/335/1341 225/334/1342 86/435/1343 404/473/1344
f 308/224/1345 171/223/1346 191/98/1347 115/458/1348
f 2/405/1349 81/326/1350 79/329/1351 221/406/1352
f 51/180/1353 17/347/1354 353/349/1355 13/176/1356
f 21/175/1357 346/318/1358 132/408/1359 47/172/1360
f 186/82/1361 386/484/1362 213/514/1363 281/83/1364
f 65/249/1365 176/556/1366 210/75/1367 87/74/1368
f 7/444/1369 73/443/1370 70/242/1371 231/518/1372
f 307/295/1373 7/444/1374 231/518/1375 167/517/1376
f 112/555/1377 94/372/1378 230/348/1379 17/347/1380
f 379/339/1381 380/216/1382 161/215/1383 301/288/1384
f 80/131/1385 203/130/1386 183/281/1387 383/557/1388
f 349/559/1389 160/18/1390 372/17/1391 383/557/1392
f 187/125/1393 61/483/1394 340/544/1395 167/517/1396
f 313/416/1397 173/439/1398 148/164/1399 376/417/1400
f 384/391/1401 184/560/1402 144/264/1403 277/263/1404
f 192/112/1405 351/165/1406 155/118/1407 392/113/1408
f 142/303/1409 48/245/1410 20/469/1411 112/555/1412
f 287/64/1413 271/67/1414 147/58/1415 286/382/1416
f 121/325/1417 254/352/1418 174/478/1419 314/331/1420
f 51/180/1421 142/303/1422 112/555/1423 17/347/1424
f 325/151/1425 164/424/1426 304/561/1427 98/562/1428
f 79/329/1429 85/261/1430 241/516/1431 221/406/1432
f 62/393/1433 402/462/1434 216/486/1435 255/403/1436
f 165/152/1437 325/151/1438 98/562/1439 305/563/1440
f 4/430/1441 177/432/1442 317/248/1443 378/520/1444
f 128/351/1445 195/350/1446 395/528/1447 217/564/1448
f 213/136/1449 282/32/1450 363/31/1451 385/266/1452
f 178/107/1453 4/430/1454 378/520/1455 318/138/1456
f 108/565/1457 173/439/1458 313/416/1459 156/526/1460
f 194/301/1461 128/351/1462 217/564/1463 394/298/1464
f 76/566/1465 193/440/1466 173/439/1467 108/565/1468
f 174/567/1469 108/565/1470 156/526/1471 314/531/1472
f 196/167/1473 279/529/1474 210/75/1475 176/556/1476
f 61/483/1477 186/82/1478 166/85/1479 340/544/1480
f 298/280/1481 184/560/1482 384/391/1483 349/559/1484
f 97/479/1485 200/95/1486 180/384/1487 117/506/1488
f 14/474/1489 227/418/1490 89/421/1491 330/546/1492
f 183/281/1493 298/280/1494 349/559/1495 383/557/1496
f 5/327/1497 269/543/1498 58/395/1499 222/328/1500
f 197/168/1501 196/167/1502 176/556/1503 177/432/1504
f 29/426/1505 237/463/1506 326/143/1507 339/142/1508
f 257/367/1509 216/486/1510 402/462/1511 356/445/1512
f 393/119/1513 193/440/1514 76/566/1515 133/437/1516
f 45/244/1517 41/457/1518 20/469/1519 48/245/1520
f 274/65/1521 287/64/1522 286/382/1523 299/428/1524
f 224/209/1525 244/472/1526 334/259/1527 58/395/1528
f 145/481/1529 34/502/1530 123/542/1531 234/470/1532
f 107/358/1533 205/307/1534 256/306/1535 236/568/1536
f 56/206/1537 224/209/1538 58/395/1539 269/543/1540
f 114/569/1541 165/570/1542 305/414/1543 102/413/1544
f 175/76/1545 210/75/1546 279/529/1547 195/350/1548
f 228/162/1549 248/161/1550 369/466/1551 151/465/1552
f 166/85/1553 114/84/1554 102/412/1555 306/297/1556
f 43/369/1557 24/174/1558 23/173/1559 10/504/1560
f 370/407/1561 152/276/1562 243/275/1563 223/218/1564
f 376/417/1565 148/164/1566 172/163/1567 312/399/1568
f 27/342/1569 43/571/1570 10/511/1571 44/343/1572
f 384/391/1573 264/19/1574 160/18/1575 349/559/1576
f 95/500/1577 214/521/1578 179/89/1579 319/346/1580
f 215/434/1581 150/572/1582 220/420/1583 247/419/1584
f 89/421/1585 220/420/1586 249/549/1587 229/410/1588
