%YAML 1.1
%TAG !u! tag:unity3d.com,2011:
--- !u!1 &9125359469223215532
GameObject:
  m_ObjectHideFlags: 0
  m_CorrespondingSourceObject: {fileID: 0}
  m_PrefabInstance: {fileID: 0}
  m_PrefabAsset: {fileID: 0}
  serializedVersion: 6
  m_Component:
  - component: {fileID: 9125359469223215533}
  - component: {fileID: 9125359469223215538}
  - component: {fileID: 9125359469223215539}
  m_Layer: 0
  m_Name: Bomb
  m_TagString: Item
  m_Icon: {fileID: 0}
  m_NavMeshLayer: 0
  m_StaticEditorFlags: 0
  m_IsActive: 1
--- !u!4 &9125359469223215533
Transform:
  m_ObjectHideFlags: 0
  m_CorrespondingSourceObject: {fileID: 0}
  m_PrefabInstance: {fileID: 0}
  m_PrefabAsset: {fileID: 0}
  m_GameObject: {fileID: 9125359469223215532}
  m_LocalRotation: {x: 0, y: 0, z: 0, w: 1}
  m_LocalPosition: {x: 0, y: 3.58, z: 3.49}
  m_LocalScale: {x: 1, y: 1, z: 1}
  m_Children:
  - {fileID: 5445747260166201500}
  m_Father: {fileID: 0}
  m_RootOrder: 0
  m_LocalEulerAnglesHint: {x: 0, y: 0, z: 0}
--- !u!114 &9125359469223215538
MonoBehaviour:
  m_ObjectHideFlags: 0
  m_CorrespondingSourceObject: {fileID: 0}
  m_PrefabInstance: {fileID: 0}
  m_PrefabAsset: {fileID: 0}
  m_GameObject: {fileID: 9125359469223215532}
  m_Enabled: 1
  m_EditorHideFlags: 0
  m_Script: {fileID: 11500000, guid: 456fe3a69dc88cd48818fff3ad9cc47b, type: 3}
  m_Name: 
  m_EditorClassIdentifier: 
  itemType: 1
--- !u!65 &9125359469223215539
BoxCollider:
  m_ObjectHideFlags: 0
  m_CorrespondingSourceObject: {fileID: 0}
  m_PrefabInstance: {fileID: 0}
  m_PrefabAsset: {fileID: 0}
  m_GameObject: {fileID: 9125359469223215532}
  m_Material: {fileID: 0}
  m_IsTrigger: 0
  m_Enabled: 1
  serializedVersion: 2
  m_Size: {x: 1.1339318, y: 1.177223, z: 0.79679656}
  m_Center: {x: -0.0054892898, y: -0.010630488, z: 0.012676358}
--- !u!1001 &1074559900435794822
PrefabInstance:
  m_ObjectHideFlags: 0
  serializedVersion: 2
  m_Modification:
    m_TransformParent: {fileID: 9125359469223215533}
    m_Modifications:
    - target: {fileID: -927199367670048503, guid: a0e0eb2936d80f443a49b45ee15b62db,
        type: 3}
      propertyPath: m_Name
      value: bomb
      objectReference: {fileID: 0}
    - target: {fileID: -4216859302048453862, guid: a0e0eb2936d80f443a49b45ee15b62db,
        type: 3}
      propertyPath: m_LocalPosition.x
      value: -0
      objectReference: {fileID: 0}
    - target: {fileID: -4216859302048453862, guid: a0e0eb2936d80f443a49b45ee15b62db,
        type: 3}
      propertyPath: m_LocalPosition.y
      value: 0
      objectReference: {fileID: 0}
    - target: {fileID: -4216859302048453862, guid: a0e0eb2936d80f443a49b45ee15b62db,
        type: 3}
      propertyPath: m_LocalPosition.z
      value: 0
      objectReference: {fileID: 0}
    - target: {fileID: -4216859302048453862, guid: a0e0eb2936d80f443a49b45ee15b62db,
        type: 3}
      propertyPath: m_LocalRotation.x
      value: 0
      objectReference: {fileID: 0}
    - target: {fileID: -4216859302048453862, guid: a0e0eb2936d80f443a49b45ee15b62db,
        type: 3}
      propertyPath: m_LocalRotation.y
      value: -0
      objectReference: {fileID: 0}
    - target: {fileID: -4216859302048453862, guid: a0e0eb2936d80f443a49b45ee15b62db,
        type: 3}
      propertyPath: m_LocalRotation.z
      value: -0
      objectReference: {fileID: 0}
    - target: {fileID: -4216859302048453862, guid: a0e0eb2936d80f443a49b45ee15b62db,
        type: 3}
      propertyPath: m_LocalRotation.w
      value: 1
      objectReference: {fileID: 0}
    - target: {fileID: -4216859302048453862, guid: a0e0eb2936d80f443a49b45ee15b62db,
        type: 3}
      propertyPath: m_RootOrder
      value: 0
      objectReference: {fileID: 0}
    - target: {fileID: -4216859302048453862, guid: a0e0eb2936d80f443a49b45ee15b62db,
        type: 3}
      propertyPath: m_LocalEulerAnglesHint.x
      value: 0
      objectReference: {fileID: 0}
    - target: {fileID: -4216859302048453862, guid: a0e0eb2936d80f443a49b45ee15b62db,
        type: 3}
      propertyPath: m_LocalEulerAnglesHint.y
      value: 0
      objectReference: {fileID: 0}
    - target: {fileID: -4216859302048453862, guid: a0e0eb2936d80f443a49b45ee15b62db,
        type: 3}
      propertyPath: m_LocalEulerAnglesHint.z
      value: 0
      objectReference: {fileID: 0}
    - target: {fileID: -4216859302048453862, guid: a0e0eb2936d80f443a49b45ee15b62db,
        type: 3}
      propertyPath: m_LocalScale.x
      value: 0.8256786
      objectReference: {fileID: 0}
    - target: {fileID: -4216859302048453862, guid: a0e0eb2936d80f443a49b45ee15b62db,
        type: 3}
      propertyPath: m_LocalScale.y
      value: 0.8256786
      objectReference: {fileID: 0}
    - target: {fileID: -4216859302048453862, guid: a0e0eb2936d80f443a49b45ee15b62db,
        type: 3}
      propertyPath: m_LocalScale.z
      value: 0.8256786
      objectReference: {fileID: 0}
    - target: {fileID: -3979740363942426968, guid: a0e0eb2936d80f443a49b45ee15b62db,
        type: 3}
      propertyPath: m_LocalScale.x
      value: 0.69463
      objectReference: {fileID: 0}
    - target: {fileID: -3979740363942426968, guid: a0e0eb2936d80f443a49b45ee15b62db,
        type: 3}
      propertyPath: m_LocalScale.y
      value: 0.69463
      objectReference: {fileID: 0}
    - target: {fileID: -3979740363942426968, guid: a0e0eb2936d80f443a49b45ee15b62db,
        type: 3}
      propertyPath: m_LocalScale.z
      value: 0.69463
      objectReference: {fileID: 0}
    m_RemovedComponents: []
  m_SourcePrefab: {fileID: 100100000, guid: a0e0eb2936d80f443a49b45ee15b62db, type: 3}
--- !u!4 &5445747260166201500 stripped
Transform:
  m_CorrespondingSourceObject: {fileID: -4216859302048453862, guid: a0e0eb2936d80f443a49b45ee15b62db,
    type: 3}
  m_PrefabInstance: {fileID: 1074559900435794822}
  m_PrefabAsset: {fileID: 0}
