%YAML 1.1
%TAG !u! tag:unity3d.com,2011:
--- !u!1 &1465653125627758596
GameObject:
  m_ObjectHideFlags: 0
  m_CorrespondingSourceObject: {fileID: 0}
  m_PrefabInstance: {fileID: 0}
  m_PrefabAsset: {fileID: 0}
  serializedVersion: 6
  m_Component:
  - component: {fileID: 1465653125627758597}
  - component: {fileID: 1465653125627758618}
  - component: {fileID: 1465653125627758619}
  m_Layer: 0
  m_Name: Chronometer
  m_TagString: Item
  m_Icon: {fileID: 0}
  m_NavMeshLayer: 0
  m_StaticEditorFlags: 0
  m_IsActive: 1
--- !u!4 &1465653125627758597
Transform:
  m_ObjectHideFlags: 0
  m_CorrespondingSourceObject: {fileID: 0}
  m_PrefabInstance: {fileID: 0}
  m_PrefabAsset: {fileID: 0}
  m_GameObject: {fileID: 1465653125627758596}
  m_LocalRotation: {x: 0, y: 0, z: 0, w: 1}
  m_LocalPosition: {x: 0, y: 3.58, z: 3.49}
  m_LocalScale: {x: 1, y: 1, z: 1}
  m_Children:
  - {fileID: 5849541559808186246}
  m_Father: {fileID: 0}
  m_RootOrder: 0
  m_LocalEulerAnglesHint: {x: 0, y: 0, z: 0}
--- !u!114 &1465653125627758618
MonoBehaviour:
  m_ObjectHideFlags: 0
  m_CorrespondingSourceObject: {fileID: 0}
  m_PrefabInstance: {fileID: 0}
  m_PrefabAsset: {fileID: 0}
  m_GameObject: {fileID: 1465653125627758596}
  m_Enabled: 1
  m_EditorHideFlags: 0
  m_Script: {fileID: 11500000, guid: 456fe3a69dc88cd48818fff3ad9cc47b, type: 3}
  m_Name: 
  m_EditorClassIdentifier: 
  itemType: 0
--- !u!65 &1465653125627758619
BoxCollider:
  m_ObjectHideFlags: 0
  m_CorrespondingSourceObject: {fileID: 0}
  m_PrefabInstance: {fileID: 0}
  m_PrefabAsset: {fileID: 0}
  m_GameObject: {fileID: 1465653125627758596}
  m_Material: {fileID: 0}
  m_IsTrigger: 0
  m_Enabled: 1
  serializedVersion: 2
  m_Size: {x: 1.4912794, y: 1.6877201, z: 0.57278013}
  m_Center: {x: 0.0098255575, y: -0.020840049, z: 0.015630007}
--- !u!1001 &1465653127068384412
PrefabInstance:
  m_ObjectHideFlags: 0
  serializedVersion: 2
  m_Modification:
    m_TransformParent: {fileID: 1465653125627758597}
    m_Modifications:
    - target: {fileID: -927199367670048503, guid: 382ed160ebb557043824353024c889a1,
        type: 3}
      propertyPath: m_Name
      value: chronometer
      objectReference: {fileID: 0}
    - target: {fileID: -4216859302048453862, guid: 382ed160ebb557043824353024c889a1,
        type: 3}
      propertyPath: m_LocalPosition.x
      value: 0.000021219254
      objectReference: {fileID: 0}
    - target: {fileID: -4216859302048453862, guid: 382ed160ebb557043824353024c889a1,
        type: 3}
      propertyPath: m_LocalPosition.y
      value: -0.09587312
      objectReference: {fileID: 0}
    - target: {fileID: -4216859302048453862, guid: 382ed160ebb557043824353024c889a1,
        type: 3}
      propertyPath: m_LocalPosition.z
      value: -0.009189129
      objectReference: {fileID: 0}
    - target: {fileID: -4216859302048453862, guid: 382ed160ebb557043824353024c889a1,
        type: 3}
      propertyPath: m_LocalRotation.x
      value: -0
      objectReference: {fileID: 0}
    - target: {fileID: -4216859302048453862, guid: 382ed160ebb557043824353024c889a1,
        type: 3}
      propertyPath: m_LocalRotation.y
      value: -0
      objectReference: {fileID: 0}
    - target: {fileID: -4216859302048453862, guid: 382ed160ebb557043824353024c889a1,
        type: 3}
      propertyPath: m_LocalRotation.z
      value: -0
      objectReference: {fileID: 0}
    - target: {fileID: -4216859302048453862, guid: 382ed160ebb557043824353024c889a1,
        type: 3}
      propertyPath: m_LocalRotation.w
      value: 1
      objectReference: {fileID: 0}
    - target: {fileID: -4216859302048453862, guid: 382ed160ebb557043824353024c889a1,
        type: 3}
      propertyPath: m_RootOrder
      value: 0
      objectReference: {fileID: 0}
    - target: {fileID: -4216859302048453862, guid: 382ed160ebb557043824353024c889a1,
        type: 3}
      propertyPath: m_LocalEulerAnglesHint.x
      value: 0
      objectReference: {fileID: 0}
    - target: {fileID: -4216859302048453862, guid: 382ed160ebb557043824353024c889a1,
        type: 3}
      propertyPath: m_LocalEulerAnglesHint.y
      value: 0
      objectReference: {fileID: 0}
    - target: {fileID: -4216859302048453862, guid: 382ed160ebb557043824353024c889a1,
        type: 3}
      propertyPath: m_LocalEulerAnglesHint.z
      value: 0
      objectReference: {fileID: 0}
    - target: {fileID: -4216859302048453862, guid: 382ed160ebb557043824353024c889a1,
        type: 3}
      propertyPath: m_LocalScale.x
      value: 0.7
      objectReference: {fileID: 0}
    - target: {fileID: -4216859302048453862, guid: 382ed160ebb557043824353024c889a1,
        type: 3}
      propertyPath: m_LocalScale.y
      value: 0.7
      objectReference: {fileID: 0}
    - target: {fileID: -4216859302048453862, guid: 382ed160ebb557043824353024c889a1,
        type: 3}
      propertyPath: m_LocalScale.z
      value: 0.7
      objectReference: {fileID: 0}
    m_RemovedComponents: []
  m_SourcePrefab: {fileID: 100100000, guid: 382ed160ebb557043824353024c889a1, type: 3}
--- !u!4 &5849541559808186246 stripped
Transform:
  m_CorrespondingSourceObject: {fileID: -4216859302048453862, guid: 382ed160ebb557043824353024c889a1,
    type: 3}
  m_PrefabInstance: {fileID: 1465653127068384412}
  m_PrefabAsset: {fileID: 0}
