%YAML 1.1
%TAG !u! tag:unity3d.com,2011:
--- !u!1 &8295996304045435071
GameObject:
  m_ObjectHideFlags: 0
  m_CorrespondingSourceObject: {fileID: 0}
  m_PrefabInstance: {fileID: 0}
  m_PrefabAsset: {fileID: 0}
  serializedVersion: 6
  m_Component:
  - component: {fileID: 5420347262034922286}
  - component: {fileID: 2406928460739634477}
  - component: {fileID: 3608891746527536571}
  - component: {fileID: 2370811325150878186}
  m_Layer: 8
  m_Name: Ramp
  m_TagString: Untagged
  m_Icon: {fileID: 0}
  m_NavMeshLayer: 0
  m_StaticEditorFlags: 0
  m_IsActive: 1
--- !u!4 &5420347262034922286
Transform:
  m_ObjectHideFlags: 0
  m_CorrespondingSourceObject: {fileID: 0}
  m_PrefabInstance: {fileID: 0}
  m_PrefabAsset: {fileID: 0}
  m_GameObject: {fileID: 8295996304045435071}
  m_LocalRotation: {x: 0, y: 0, z: 0, w: 1}
  m_LocalPosition: {x: 0.1998, y: -0.0002, z: 0.1978}
  m_LocalScale: {x: 0.0994824, y: 0.0994824, z: 0.0994824}
  m_Children:
  - {fileID: 4564231963841163183}
  m_Father: {fileID: 0}
  m_RootOrder: 0
  m_LocalEulerAnglesHint: {x: 0, y: 0, z: 0}
--- !u!64 &2406928460739634477
MeshCollider:
  m_ObjectHideFlags: 0
  m_CorrespondingSourceObject: {fileID: 0}
  m_PrefabInstance: {fileID: 0}
  m_PrefabAsset: {fileID: 0}
  m_GameObject: {fileID: 8295996304045435071}
  m_Material: {fileID: 0}
  m_IsTrigger: 0
  m_Enabled: 1
  serializedVersion: 3
  m_Convex: 0
  m_CookingOptions: 0
  m_Mesh: {fileID: 4068373912626513877, guid: b21134da42cc78a42b2d1a7f7a6638bf, type: 3}
--- !u!114 &3608891746527536571
MonoBehaviour:
  m_ObjectHideFlags: 0
  m_CorrespondingSourceObject: {fileID: 0}
  m_PrefabInstance: {fileID: 0}
  m_PrefabAsset: {fileID: 0}
  m_GameObject: {fileID: 8295996304045435071}
  m_Enabled: 1
  m_EditorHideFlags: 0
  m_Script: {fileID: 11500000, guid: b7c3e64dbbacee844a9b870c430962aa, type: 3}
  m_Name: 
  m_EditorClassIdentifier: 
  LayerMask:
    serializedVersion: 2
    m_Bits: 4294967291
--- !u!114 &2370811325150878186
MonoBehaviour:
  m_ObjectHideFlags: 0
  m_CorrespondingSourceObject: {fileID: 0}
  m_PrefabInstance: {fileID: 0}
  m_PrefabAsset: {fileID: 0}
  m_GameObject: {fileID: 8295996304045435071}
  m_Enabled: 1
  m_EditorHideFlags: 0
  m_Script: {fileID: 11500000, guid: d4a9caa2d3eace64daa98ab36fbecc3e, type: 3}
  m_Name: 
  m_EditorClassIdentifier: 
--- !u!1001 &8803934771024872629
PrefabInstance:
  m_ObjectHideFlags: 0
  serializedVersion: 2
  m_Modification:
    m_TransformParent: {fileID: 5420347262034922286}
    m_Modifications:
    - target: {fileID: -927199367670048503, guid: b21134da42cc78a42b2d1a7f7a6638bf,
        type: 3}
      propertyPath: m_Name
      value: ramp
      objectReference: {fileID: 0}
    - target: {fileID: -4216859302048453862, guid: b21134da42cc78a42b2d1a7f7a6638bf,
        type: 3}
      propertyPath: m_LocalPosition.x
      value: 0
      objectReference: {fileID: 0}
    - target: {fileID: -4216859302048453862, guid: b21134da42cc78a42b2d1a7f7a6638bf,
        type: 3}
      propertyPath: m_LocalPosition.y
      value: 0
      objectReference: {fileID: 0}
    - target: {fileID: -4216859302048453862, guid: b21134da42cc78a42b2d1a7f7a6638bf,
        type: 3}
      propertyPath: m_LocalPosition.z
      value: 0
      objectReference: {fileID: 0}
    - target: {fileID: -4216859302048453862, guid: b21134da42cc78a42b2d1a7f7a6638bf,
        type: 3}
      propertyPath: m_LocalRotation.x
      value: 0
      objectReference: {fileID: 0}
    - target: {fileID: -4216859302048453862, guid: b21134da42cc78a42b2d1a7f7a6638bf,
        type: 3}
      propertyPath: m_LocalRotation.y
      value: 0
      objectReference: {fileID: 0}
    - target: {fileID: -4216859302048453862, guid: b21134da42cc78a42b2d1a7f7a6638bf,
        type: 3}
      propertyPath: m_LocalRotation.z
      value: 0
      objectReference: {fileID: 0}
    - target: {fileID: -4216859302048453862, guid: b21134da42cc78a42b2d1a7f7a6638bf,
        type: 3}
      propertyPath: m_LocalRotation.w
      value: 1
      objectReference: {fileID: 0}
    - target: {fileID: -4216859302048453862, guid: b21134da42cc78a42b2d1a7f7a6638bf,
        type: 3}
      propertyPath: m_RootOrder
      value: 0
      objectReference: {fileID: 0}
    - target: {fileID: -4216859302048453862, guid: b21134da42cc78a42b2d1a7f7a6638bf,
        type: 3}
      propertyPath: m_LocalEulerAnglesHint.x
      value: 0
      objectReference: {fileID: 0}
    - target: {fileID: -4216859302048453862, guid: b21134da42cc78a42b2d1a7f7a6638bf,
        type: 3}
      propertyPath: m_LocalEulerAnglesHint.y
      value: 0
      objectReference: {fileID: 0}
    - target: {fileID: -4216859302048453862, guid: b21134da42cc78a42b2d1a7f7a6638bf,
        type: 3}
      propertyPath: m_LocalEulerAnglesHint.z
      value: 0
      objectReference: {fileID: 0}
    m_RemovedComponents: []
  m_SourcePrefab: {fileID: 100100000, guid: b21134da42cc78a42b2d1a7f7a6638bf, type: 3}
--- !u!4 &4564231963841163183 stripped
Transform:
  m_CorrespondingSourceObject: {fileID: -4216859302048453862, guid: b21134da42cc78a42b2d1a7f7a6638bf,
    type: 3}
  m_PrefabInstance: {fileID: 8803934771024872629}
  m_PrefabAsset: {fileID: 0}
