%YAML 1.1
%TAG !u! tag:unity3d.com,2011:
--- !u!687078895 &4343727234628468602
SpriteAtlas:
  m_ObjectHideFlags: 0
  m_CorrespondingSourceObject: {fileID: 0}
  m_PrefabInstance: {fileID: 0}
  m_PrefabAsset: {fileID: 0}
  m_Name: GameAtlas
  m_EditorData:
    serializedVersion: 2
    textureSettings:
      serializedVersion: 2
      anisoLevel: 1
      compressionQuality: 50
      maxTextureSize: 2048
      textureCompression: 0
      filterMode: 1
      generateMipMaps: 0
      readable: 0
      crunchedCompression: 0
      sRGB: 1
    platformSettings: []
    packingSettings:
      serializedVersion: 2
      padding: 2
      blockOffset: 1
      allowAlphaSplitting: 0
      enableRotation: 1
      enableTightPacking: 0
    variantMultiplier: 1
    packables:
    - {fileID: 102900000, guid: b0824aa559dafbc4a996246f9a0fe4e6, type: 3}
    totalSpriteSurfaceArea: 2806073
    bindAsDefault: 1
  m_MasterAtlas: {fileID: 0}
  m_PackedSprites:
  - {fileID: 21300000, guid: d15a6c40020b09c469f701db1054fa31, type: 3}
  - {fileID: 21300000, guid: b328b060e824b9c45a5e39b1de1ce2aa, type: 3}
  - {fileID: 21300000, guid: 826742c0b9f509f44a1d658303087765, type: 3}
  - {fileID: 21300000, guid: eaaa41118ad96944f917d17d403c28a1, type: 3}
  - {fileID: 21300000, guid: b452cf2120623e041b60d2fa1def769b, type: 3}
  - {fileID: 21300000, guid: a0f15b319cd361c44885de0507c26ac8, type: 3}
  - {fileID: 21300000, guid: 5ff845413d9113c4886251bd02d26038, type: 3}
  - {fileID: 21300000, guid: 3675d541ca1d31a41b7a3fac492d8072, type: 3}
  - {fileID: 21300000, guid: 3069ad7164284c144ba9ea01135f4e72, type: 3}
  - {fileID: 21300000, guid: f8d70391b50acf144b99ba77c99cafbc, type: 3}
  - {fileID: 21300000, guid: 07c90a917b0c84d42b659b6633836ec4, type: 3}
  - {fileID: 21300000, guid: eb242db1c6a997c43886eece93b40c23, type: 3}
  - {fileID: 21300000, guid: d90997e1334938344ba1ebb07f29d41f, type: 3}
  - {fileID: 21300000, guid: 3182fce1f94a9204d8c834ed80475679, type: 3}
  - {fileID: 21300000, guid: 5c7fa702d8f6ae6499b8aefb0b1e4092, type: 3}
  - {fileID: 21300000, guid: 851b72125458a914f8fcaf4ed10a707c, type: 3}
  - {fileID: 21300000, guid: 836f5612bfb9ae541b623c0eedfd9a94, type: 3}
  - {fileID: 21300000, guid: 295adf7231a1a084b8857d3ac5b74fa0, type: 3}
  - {fileID: 21300000, guid: f16938a292f13fa418862e548bdd3c14, type: 3}
  - {fileID: 21300000, guid: 9dead6b28bd7c4e469c274fd97a1f67a, type: 3}
  - {fileID: 21300000, guid: 09edb91340add4842bf86c8d92afca2a, type: 3}
  - {fileID: 21300000, guid: 3e5686233c5181e4fa08ed1359a7aad5, type: 3}
  - {fileID: 21300000, guid: aa61f7331c2da9e4389d5e356077f7a9, type: 3}
  - {fileID: 21300000, guid: 90f606734aa82044ebd52c22226dfe5e, type: 3}
  - {fileID: 21300000, guid: 185ed2939ec8672468479cbe11cb0ae9, type: 3}
  - {fileID: 21300000, guid: 96e78cd31446a3c408dd2db324257eb3, type: 3}
  - {fileID: 21300000, guid: 4795542425ca1614aaa09aa04dd031c5, type: 3}
  - {fileID: 21300000, guid: 8697a334d8ef74b4b8059e3a4e2de021, type: 3}
  - {fileID: 21300000, guid: 28e6b7542571edc42b0ccd4b44737187, type: 3}
  - {fileID: 21300000, guid: c502d9948f4b6be4aa24cc46a1388452, type: 3}
  - {fileID: 21300000, guid: 6a2a5dc41a3f21645aefb88d9a838bb5, type: 3}
  - {fileID: 21300000, guid: d3a08305fad158f49a00e16d131211af, type: 3}
  - {fileID: 21300000, guid: 3b165e15f08dbd8498ce441c9e94f1fe, type: 3}
  - {fileID: 21300000, guid: 4935c7450e6148142a37ccd1356ac71b, type: 3}
  - {fileID: 21300000, guid: 419eb2a579be11c4bacd8f5790a783b5, type: 3}
  - {fileID: 21300000, guid: 88bf43a545c26cc48998edc8790448f3, type: 3}
  - {fileID: 21300000, guid: 619de5a581803eb4892f02b26e73ef91, type: 3}
  - {fileID: 21300000, guid: dc300da585bb3684fb4998bfb972f8b0, type: 3}
  - {fileID: 21300000, guid: e8ce3e065f17d794ab36bc84792c2717, type: 3}
  - {fileID: 21300000, guid: d273b0264fd7a2640b6a3f13995f69a2, type: 3}
  - {fileID: 21300000, guid: 464ea626b1cfaf94384c56d21eba1ae8, type: 3}
  - {fileID: 21300000, guid: bdb71a361c86f2a4aa60ed1ea6e13363, type: 3}
  - {fileID: 21300000, guid: 9b3f784676f21bd47ae0704a2295a50a, type: 3}
  - {fileID: 21300000, guid: 6cae4e4645dd3684a8efc10e1e2bf6e9, type: 3}
  - {fileID: 21300000, guid: 15e5328687050b4448770a6dc826bfe4, type: 3}
  - {fileID: 21300000, guid: 070e7f860f252014f9a1408409ad4a24, type: 3}
  - {fileID: 21300000, guid: e2a83ba65f3ef2740b51ff555e012566, type: 3}
  - {fileID: 21300000, guid: 393b8a17e6c1497408c0972ca9751dc6, type: 3}
  - {fileID: 21300000, guid: b325ac87ecfe42a48b2819205c26ffb5, type: 3}
  - {fileID: 21300000, guid: 9555203827059eb47a47e29ba803edfc, type: 3}
  - {fileID: 21300000, guid: bae9e75806357af45867ecfb381ae15b, type: 3}
  - {fileID: 21300000, guid: eaaa98980a1ae004584d6dc2a8aaea8a, type: 3}
  - {fileID: 21300000, guid: fd610fd8e0ec63944ac30d342ccf2fa8, type: 3}
  - {fileID: 21300000, guid: b3a08e09b9c89654fbb294ee62deabfa, type: 3}
  - {fileID: 21300000, guid: bd6fab49947195a42bcebfd9847843b8, type: 3}
  - {fileID: 21300000, guid: de50bd49701bc284e87499e89a683f03, type: 3}
  - {fileID: 21300000, guid: 165c8b59810d7e743b043d06bf40b59f, type: 3}
  - {fileID: 21300000, guid: aec4f069755e0ec4ab56909ef8534963, type: 3}
  - {fileID: 21300000, guid: e03cb6a9074d4f74784b4412b7847df7, type: 3}
  - {fileID: 21300000, guid: 70b5800a900c98c4091ccb0e3176be19, type: 3}
  - {fileID: 21300000, guid: 54ae472a4a2f053408e4846ad330ebe6, type: 3}
  - {fileID: 21300000, guid: 98a3de3a7559af04c8a8803a10bac59b, type: 3}
  - {fileID: 21300000, guid: fc896e4a1e7230d479053e0b9841b3f4, type: 3}
  - {fileID: 21300000, guid: 2ec1d45ae1c3b2f4386669dfa8f594c6, type: 3}
  - {fileID: 21300000, guid: 2bd25aea657d1894788a0429f1da785a, type: 3}
  - {fileID: 21300000, guid: 8b6e1b2b812e5e44bb0320951e4e3000, type: 3}
  - {fileID: 21300000, guid: c713053b4e0369241a9726f71fd94c10, type: 3}
  - {fileID: 21300000, guid: fc8fad6bc5dfdee4c81be4a313d7728d, type: 3}
  - {fileID: 21300000, guid: ab8170ab7af051f4a99dd34a3c98e4aa, type: 3}
  - {fileID: 21300000, guid: 70fca1cbb0a6c964b965b626664ff751, type: 3}
  - {fileID: 21300000, guid: 26b1144c9e908af47976392adeb49955, type: 3}
  - {fileID: 21300000, guid: 36e8aa5c2942e0a45a09d66167644493, type: 3}
  - {fileID: 21300000, guid: 3d00217c93a17b44fa80687880db0ebd, type: 3}
  - {fileID: 21300000, guid: 7417a79c9f4d3b54bbdd591bd4beac8a, type: 3}
  - {fileID: 21300000, guid: 196f1fac07d6751409e2302458edead1, type: 3}
  - {fileID: 21300000, guid: bbec2bdc793fd1a43bb0ad4d8ac56146, type: 3}
  - {fileID: 21300000, guid: ca2487ecf8dd8ff498c7470d26229a92, type: 3}
  - {fileID: 21300000, guid: 6f63d62d0c5ea8744b426d4835a8978d, type: 3}
  - {fileID: 21300000, guid: 648d154d45ba2a14c8a5febb806ba2a7, type: 3}
  - {fileID: 21300000, guid: 55039c4db4777ad4783f1d4133f6168d, type: 3}
  - {fileID: 21300000, guid: 506dc36d666c72548a8fc6e23d406f2a, type: 3}
  - {fileID: 21300000, guid: ee23866d38b7a6a42a22b867906f693d, type: 3}
  - {fileID: 21300000, guid: e823e6ed597e12e4ea5ba6d028633662, type: 3}
  - {fileID: 21300000, guid: ef63b66e8313d3f499f2656a1b606265, type: 3}
  - {fileID: 21300000, guid: 66b4949e40c0a874e8aea025d5420e34, type: 3}
  - {fileID: 21300000, guid: 37da21ae4ae97214b9c1b614c225d2eb, type: 3}
  - {fileID: 21300000, guid: 517625eeff6fa50448e5fbd905f654cb, type: 3}
  - {fileID: 21300000, guid: b38696eee1fd02747b59fd62aeff3e33, type: 3}
  - {fileID: 21300000, guid: 1cdfb50f6ca6b9f4cbe86bc13c168247, type: 3}
  - {fileID: 21300000, guid: e483922fae19c334daf671f009ddceb4, type: 3}
  - {fileID: 21300000, guid: 16b1b16f2b0c2d24badecddfe250fd72, type: 3}
  - {fileID: 21300000, guid: db1ded6f0f9736f49ad2c137e5779bf1, type: 3}
  - {fileID: 21300000, guid: c782d39f8925aaa4b83ed92a106b7721, type: 3}
  - {fileID: 21300000, guid: 881174af4ae26834291f15548c930030, type: 3}
  - {fileID: 21300000, guid: d83492cfd947bce41a13eb0de9b08add, type: 3}
  - {fileID: 21300000, guid: 52544cff576b1e648911ac6a99e1631e, type: 3}
  m_PackedSpriteNamesToIndex:
  - modal_tutorial2
  - graf_ladron
  - graf_crea_tornillo
  - selec_carro_3
  - particula_confeti
  - obstaculo_agua_piedras
  - selec_cuerpo_4
  - graf_ladron_pregunta
  - ico_huella
  - graf_tutorial_manguera
  - particula_roca_1
  - btn_menu
  - graf_tutorial_ladron
  - graf_tutorial_pista
  - graf_coronel_4
  - graf_crea_herramienta
  - graf_menu_llama
  - ico_flecha
  - particula_madera_2
  - obstaculo_cajas
  - obstaculo_piedras
  - graf_ladron_encarcelado
  - graf_tutorial_marca_ladron
  - graf_lego_feliz
  - graf_brillo_ganaste
  - ico_pausa
  - graf_pista_3
  - graf_menu_esposas
  - ico_camara
  - graf_lego_triste
  - graf_placa_conteo
  - graf_cargando_coronel
  - particula_madera
  - btn_rojo
  - graf_modal
  - graf_tutorial_mano
  - graf_ladron_pista_decor_2
  - graf_coronel_2
  - graf_cargando_fondo
  - graf_menu_lego
  - graf_celular
  - gotas_agua
  - ico_paloma
  - graf_tutorial_bucket
  - selec_carro_4
  - logo_kidsbucket
  - graf_contador_base
  - graf_lego_ganaste
  - graf_contador_base_ch
  - graf_llamas_manguera_ext
  - selec_cuerpo_1
  - graf_llamas_manguera
  - obstaculo_agua_barril
  - rect
  - graf_contador_fondo
  - piernita_pollo
  - graf_lego_asustado
  - graf_coronel_3
  - graf_tutorial_flamita
  - particula_roca_3
  - ico_splash_revarts
  - selec_casco_3
  - btn_blanco
  - logo_kfc
  - graf_ladron_cinta_abajo
  - graf_tutorial_reloj
  - graf_cargando_relleno
  - particula_roca_2
  - graf_coronel_1
  - graf_tutorial_bombas
  - graf_ladron_cinta
  - ico_tache
  - graf_lego_sorprendid
  - particula_madera_3
  - graf_tutorial_mira
  - selec_cuerpo_2
  - ico_splash_kfc
  - graf_crea_herramienta2
  - graf_runner_barra
  - graf_ladron_pista_decor
  - selec_casco_4
  - selec_casco_1
  - logo_grande
  - graf_pista_2
  - graf_pista_1
  - ico_cupon
  - ico_pollo
  - graf_insignia_menu
  - selec_carro_1
  - graf_modal_tutorial
  - logo_pequenios
  - graf_runner_vida
  - selec_carro_2
  - ico_flama
  - selec_cuerpo_3
  - selec_casco_2
  m_Tag: GameAtlas
  m_IsVariant: 0
