%YAML 1.1
%TAG !u! tag:unity3d.com,2011:
--- !u!1 &136741680606218103
GameObject:
  m_ObjectHideFlags: 0
  m_CorrespondingSourceObject: {fileID: 0}
  m_PrefabInstance: {fileID: 0}
  m_PrefabAsset: {fileID: 0}
  serializedVersion: 6
  m_Component:
  - component: {fileID: 136741680606218101}
  - component: {fileID: 136741680606218102}
  m_Layer: 0
  m_Name: Chicken
  m_TagString: Chicken
  m_Icon: {fileID: 0}
  m_NavMeshLayer: 0
  m_StaticEditorFlags: 0
  m_IsActive: 1
--- !u!4 &136741680606218101
Transform:
  m_ObjectHideFlags: 0
  m_CorrespondingSourceObject: {fileID: 0}
  m_PrefabInstance: {fileID: 0}
  m_PrefabAsset: {fileID: 0}
  m_GameObject: {fileID: 136741680606218103}
  m_LocalRotation: {x: 0, y: 0, z: 0, w: 1}
  m_LocalPosition: {x: -0, y: 0.13, z: 0}
  m_LocalScale: {x: 1, y: 1, z: 1}
  m_Children:
  - {fileID: 8770788532545543303}
  m_Father: {fileID: 0}
  m_RootOrder: 0
  m_LocalEulerAnglesHint: {x: 0, y: 0, z: 0}
--- !u!135 &136741680606218102
SphereCollider:
  m_ObjectHideFlags: 0
  m_CorrespondingSourceObject: {fileID: 0}
  m_PrefabInstance: {fileID: 0}
  m_PrefabAsset: {fileID: 0}
  m_GameObject: {fileID: 136741680606218103}
  m_Material: {fileID: 0}
  m_IsTrigger: 0
  m_Enabled: 1
  serializedVersion: 2
  m_Radius: 0.57
  m_Center: {x: 0, y: 0, z: 0}
--- !u!1001 &4378252543963953053
PrefabInstance:
  m_ObjectHideFlags: 0
  serializedVersion: 2
  m_Modification:
    m_TransformParent: {fileID: 136741680606218101}
    m_Modifications:
    - target: {fileID: -927199367670048503, guid: 42bed6140b65abe4da786c73e4b70baa,
        type: 3}
      propertyPath: m_Name
      value: pollo
      objectReference: {fileID: 0}
    - target: {fileID: -4216859302048453862, guid: 42bed6140b65abe4da786c73e4b70baa,
        type: 3}
      propertyPath: m_LocalPosition.x
      value: -0
      objectReference: {fileID: 0}
    - target: {fileID: -4216859302048453862, guid: 42bed6140b65abe4da786c73e4b70baa,
        type: 3}
      propertyPath: m_LocalPosition.y
      value: 0
      objectReference: {fileID: 0}
    - target: {fileID: -4216859302048453862, guid: 42bed6140b65abe4da786c73e4b70baa,
        type: 3}
      propertyPath: m_LocalPosition.z
      value: 0
      objectReference: {fileID: 0}
    - target: {fileID: -4216859302048453862, guid: 42bed6140b65abe4da786c73e4b70baa,
        type: 3}
      propertyPath: m_LocalRotation.x
      value: 0
      objectReference: {fileID: 0}
    - target: {fileID: -4216859302048453862, guid: 42bed6140b65abe4da786c73e4b70baa,
        type: 3}
      propertyPath: m_LocalRotation.y
      value: -0
      objectReference: {fileID: 0}
    - target: {fileID: -4216859302048453862, guid: 42bed6140b65abe4da786c73e4b70baa,
        type: 3}
      propertyPath: m_LocalRotation.z
      value: -0
      objectReference: {fileID: 0}
    - target: {fileID: -4216859302048453862, guid: 42bed6140b65abe4da786c73e4b70baa,
        type: 3}
      propertyPath: m_LocalRotation.w
      value: 1
      objectReference: {fileID: 0}
    - target: {fileID: -4216859302048453862, guid: 42bed6140b65abe4da786c73e4b70baa,
        type: 3}
      propertyPath: m_RootOrder
      value: 0
      objectReference: {fileID: 0}
    - target: {fileID: -4216859302048453862, guid: 42bed6140b65abe4da786c73e4b70baa,
        type: 3}
      propertyPath: m_LocalEulerAnglesHint.x
      value: 0
      objectReference: {fileID: 0}
    - target: {fileID: -4216859302048453862, guid: 42bed6140b65abe4da786c73e4b70baa,
        type: 3}
      propertyPath: m_LocalEulerAnglesHint.y
      value: 0
      objectReference: {fileID: 0}
    - target: {fileID: -4216859302048453862, guid: 42bed6140b65abe4da786c73e4b70baa,
        type: 3}
      propertyPath: m_LocalEulerAnglesHint.z
      value: 0
      objectReference: {fileID: 0}
    - target: {fileID: 5160320465554020672, guid: 42bed6140b65abe4da786c73e4b70baa,
        type: 3}
      propertyPath: m_LocalScale.x
      value: 0.03232962
      objectReference: {fileID: 0}
    - target: {fileID: 5160320465554020672, guid: 42bed6140b65abe4da786c73e4b70baa,
        type: 3}
      propertyPath: m_LocalScale.y
      value: 0.03232962
      objectReference: {fileID: 0}
    - target: {fileID: 5160320465554020672, guid: 42bed6140b65abe4da786c73e4b70baa,
        type: 3}
      propertyPath: m_LocalScale.z
      value: 0.03232962
      objectReference: {fileID: 0}
    - target: {fileID: 5160320465554020672, guid: 42bed6140b65abe4da786c73e4b70baa,
        type: 3}
      propertyPath: m_LocalPosition.z
      value: -0.82
      objectReference: {fileID: 0}
    - target: {fileID: 5160320465554020672, guid: 42bed6140b65abe4da786c73e4b70baa,
        type: 3}
      propertyPath: m_LocalPosition.y
      value: -0.092
      objectReference: {fileID: 0}
    - target: {fileID: 5160320465554020672, guid: 42bed6140b65abe4da786c73e4b70baa,
        type: 3}
      propertyPath: m_LocalRotation.x
      value: -0
      objectReference: {fileID: 0}
    - target: {fileID: 5160320465554020672, guid: 42bed6140b65abe4da786c73e4b70baa,
        type: 3}
      propertyPath: m_LocalRotation.z
      value: -0.16397412
      objectReference: {fileID: 0}
    - target: {fileID: 5160320465554020672, guid: 42bed6140b65abe4da786c73e4b70baa,
        type: 3}
      propertyPath: m_LocalRotation.w
      value: 0.9864647
      objectReference: {fileID: 0}
    - target: {fileID: 5160320465554020672, guid: 42bed6140b65abe4da786c73e4b70baa,
        type: 3}
      propertyPath: m_LocalEulerAnglesHint.z
      value: -18.875
      objectReference: {fileID: 0}
    m_RemovedComponents: []
  m_SourcePrefab: {fileID: 100100000, guid: 42bed6140b65abe4da786c73e4b70baa, type: 3}
--- !u!4 &8770788532545543303 stripped
Transform:
  m_CorrespondingSourceObject: {fileID: -4216859302048453862, guid: 42bed6140b65abe4da786c73e4b70baa,
    type: 3}
  m_PrefabInstance: {fileID: 4378252543963953053}
  m_PrefabAsset: {fileID: 0}
